username,user_handle,date,retweets,favorites,text,geological_location,mentions,hashtags,tweet_id,permalink
SuriCarlos/piñata moderadamente elocuente,SuricatoAsalto,2018-08-08 23:04,2,58,"Differently, not less, right. Sorry for misspeaking It's sad. I've been diagnosed with Asperger's, yet people tell me it's impossible because I'm nice and polite. It's fun...",,,,"1027223956019970052",https://twitter.com/SuricatoAsalto/status/1027223956019970052
LA7,andradeluise,2018-07-26 15:15,3,35,"Sad to say I won’t be able to play my senior season.. I’ve been diagnosed with Sugma # Pray4me",,,#,"1022394894579462145",https://twitter.com/andradeluise/status/1022394894579462145
🌴,shawtyarabia,2018-07-18 05:36,30,176,"I’ve been watching Fousey for years now and its so evident how mentally ill he is. The man has been diagnosed with multiple mental illnesses. The way he crashes into depression then swings into episodes of mania is so sad to watch. I can reassure y’all it’s painful for him",,,,"1019350124017930242",https://twitter.com/shawtyarabia/status/1019350124017930242
‏ً,kpvoc,2018-07-17 06:53,0,33,"i have some sad news for yall i went to the doctor today and i’ve been diagnosed with a strange non-typical disease that makes you live longer: touch it stan",,,,"1019007141611483136",https://twitter.com/kpvoc/status/1019007141611483136
Snerv,SN3RV,2018-06-18 22:54,3,29,"Sad to announce that I’ve been diagnosed with a disease/mental health issue called “Gaming Disorder” Like = 1 Prayer Love you all",,,,"1008739818203951106",https://twitter.com/SN3RV/status/1008739818203951106
Charlie,MyNamesChai,2018-05-16 04:20,14,371,"Really sad to let you guys know I've just been diagnosed with clout :(",,,,"996500510017548288",https://twitter.com/MyNamesChai/status/996500510017548288
Bobby Crush,theBobbyCrush,2018-05-10 16:33,6,82,"Sad to hear that Dame Barbara Windsor, who I’ve known for so many years, has been diagnosed with Alzheimer’s. A true showbiz icon, whose company is always a joy. Much love to her and husband Scott at this difficult time xxx",,,,"994510828857692161",https://twitter.com/theBobbyCrush/status/994510828857692161
SAM.,Samsamayy,2018-04-18 05:55,7,35,"I’ve been diagnosed with manic bipolar disorder & Manic depression and coming from generation of immigrants it’s hard to get them to understand what mental health is because it doesn’t exist in our culture which is very sad because this leads to death for not being UNDERSTOOD.",,,,"986377575210672128",https://twitter.com/Samsamayy/status/986377575210672128
Plathanos 🐝🇩🇴,SavinTheBees,2018-03-23 06:11,61,532,"It’s crazy how people get so shocked when they find out I’ve been going through depression since I was a teenager and diagnosed with it at a young age. Y’all gotta stop confusing being “sad” with what it really is. Shit is an anchor. It shows how much people really know.",,,,"976959594357432320",https://twitter.com/SavinTheBees/status/976959594357432320
Dr. Greg “BJ” Onderdonk,QuasarTheGreg,2018-02-27 00:40,5,13,"Sad to announce I’ve been diagnosed with this rare form of dyslexia pic.twitter.com/kj0gxqwmbt",,,,"968178907139764224",https://twitter.com/QuasarTheGreg/status/968178907139764224
HailDel,haileydelano_,2018-02-22 20:32,6,31,"Sad to say I’ve been diagnosed with junioritis",,,,"966667050260271104",https://twitter.com/haileydelano_/status/966667050260271104
Patrick Scott Patterson,OriginalPSP,2018-02-01 03:18,7,28,"Sad to learn that Atari co-founder Ted Dabney has been diagnosed with esophageal cancer. From what I've heard, he is declining treatment and has about eight months. Ted has always been beyond kind and helpful with any historical questions or information I needed help with.",,,,"958796528776171520",https://twitter.com/OriginalPSP/status/958796528776171520
Mikey 🔥,TheMrGrande,2017-12-14 06:27,9,30,"I've been really inactive lately because of some extremely hard and sad news. My Aunt has been diagnosed with a bad cancer. Any dontations would mean the absolute world to me https://www.gofundme.com/pattys-fight-against-cancer …",,,,"941087263114510336",https://twitter.com/TheMrGrande/status/941087263114510336
Nicole 🌺,Kushalina,2017-11-24 04:52,6,25,"I have been diagnosed with depression and I've been dealing with it for years. Its so sad to see people lose their battle with it. You're NOT alone! If anyone needs someone to talk to i'm here for you! Also: 1-800-273-8255",,,,"933815590543810565",https://twitter.com/Kushalina/status/933815590543810565
Brian Renas@OldStyle,BrRenas,2017-09-18 05:51,2,46,"My dear friends some sad news. I've been diagnosed with cancer. You're prayers and good vibes well appreciated pic.twitter.com/MS4rzWSY3b",,,,"909550383009329152",https://twitter.com/BrRenas/status/909550383009329152
sodapop,itsDreww,2016-11-11 11:09,8,36,"Im sad to have to inform all of you tonight that I've been diagnosed with stage 4 ugly. terminal.",,,,"796927749961224192",https://twitter.com/itsDreww/status/796927749961224192
tina,tkarts_,2018-10-09 03:31,1,42,"i’ve been diagnosed with diabetes a month ago and i feel like getting more and more sad every day i can’t enjoy shit",,,,"1049396819422273536",https://twitter.com/tkarts_/status/1049396819422273536
vivi,viviacity,2018-09-14 13:50,0,16,"Sorry I've been MIA. Just wanted to share some sad news. My dog recently hurt his back leg and was diagnosed with luxating patellae. That means both of his kneecaps dislocate abnormally and he might need surgery. ;_; Please send me your energies so he can recover well.",,,,"1040492864050880513",https://twitter.com/viviacity/status/1040492864050880513
David Bentley-Miller,DBentleyMiller,2018-09-03 21:11,6,27,"More sad news I’m sorry :-( I’ve just been diagnosed with a condition where I deny the existence of certain 80’s bands........There is no cure. pic.twitter.com/ibPgtF4pRV",,,,"1036617605518376960",https://twitter.com/DBentleyMiller/status/1036617605518376960
JRoy,johnroysound,2018-08-14 05:00,2,22,"I’m the son of southern white parents. I was not raised racist. When I’ve been in a car accident/fired from a job/broken my arm/ had a girlfriend cheat on me/ diagnosed with brain lesions/had the wrong food order, I’ve gotten angry, sad, upset- but never magically said racist BS",,,,"1029125673439322112",https://twitter.com/johnroysound/status/1029125673439322112
Dream: sicle,TheDreamsicle,2018-07-26 05:40,0,21,"Just left the doctors office and I’m very sad to say I’ve been diagnosed with Ligma",,,,"1022250316908187648",https://twitter.com/TheDreamsicle/status/1022250316908187648
Amarjeet,asindeo,2018-07-04 15:48,3,5,"Sad to hear that Sonali Bendre has been diagnosed with cancer. I’ve been a great admirer of hers. Hope to see her hale and hearty soon",,,,"1014430671543197697",https://twitter.com/asindeo/status/1014430671543197697
Amanda Lynn,MandaPie1981,2018-06-06 05:44,3,17,"I’ve been poked, prodded, had my IUD replaced, finally diagnosed with strep, feeling like shiiiiiiit, and I once again realize... When moms get sick, they still take care of everything. Including themselves. And no one else picks up any of the slack. Sad. But true.",,,,"1004131880793444358",https://twitter.com/MandaPie1981/status/1004131880793444358
Sabrean,Sabbyq23,2018-05-17 08:27,1,17,"if you love me, keep my cat in your du’aa. he was diagnosed with kidney failure, and I’ve literally been a wreck all day. I know it sounds silly to most people, but I’m sad over it. # shump",,,#,"996925224296828928",https://twitter.com/Sabbyq23/status/996925224296828928
👑king of being ignored👑,Jonah_Ellman,2018-05-11 06:29,2,7,"I've been diagnosed with the 4 S's: -Sleepy -Sore -Stressed -Sad and there's no CURE",,,,"994721101375836161",https://twitter.com/Jonah_Ellman/status/994721101375836161
H O N E Y  💛,ke_angerla,2018-04-28 22:54,2,6,"I’m so sorry to hear this. When I was a senior in HS my mother was diagnosed with breast cancer and she survived. This is the 3rd post I’ve seen this year of someone losing their mom and it makes me feel so sad because it could’ve been my Mama too praying for you and your fam https://twitter.com/jay_thedancer/status/989947729571917824 …",,,,"990258029185699840",https://twitter.com/ke_angerla/status/990258029185699840
joey,JoeyLovrek,2018-02-10 03:54,2,33,"my snapchat finally updated and i’m sad to announce that i’ve somehow been diagnosed with polio",,,,"962067135802454017",https://twitter.com/JoeyLovrek/status/962067135802454017
gemini,NOSTALGICDRE4MS,2017-04-23 06:49,1,18,"i've been diagnosed with..... resting sad face",,,,"855931626387374080",https://twitter.com/NOSTALGICDRE4MS/status/855931626387374080
Rick Aaron,RickAaron,2016-12-10 04:12,4,13,"I'm sad to announce that I've been diagnosed with early onset Wisenheimer's. Thanks in advance for your thoughts & prayers.",,,,"807332145714892800",https://twitter.com/RickAaron/status/807332145714892800
Dominic Shellard,DMUVC,2015-06-21 00:28,3,5,"Very sad to learn that my childhood football hero, Stan Bowles, has been diagnosed with Alzheimer's. Best # QPR player I've ever seen",,,#,"612310956979433476",https://twitter.com/DMUVC/status/612310956979433476
Kayla Marie,kaylamcm11,2015-06-01 18:30,1,19,"It's sad to say, but at such a young age I've been diagnosed with a mild case of senioritis",,,,"605335627299758080",https://twitter.com/kaylamcm11/status/605335627299758080
James Finnegan,finntastic7,2015-03-26 05:19,3,19,"Sad news: I've been diagnosed with early-onset Senioritis, my GPA may only have weeks to live.",,,,"580856614925791233",https://twitter.com/finntastic7/status/580856614925791233
Cole,colelyons12,2014-04-17 10:57,1,13,"I'm sad to say I've been diagnosed with an abnormally early case of senioritis. The doctors says that the chance of me enjoying hs is slim",,,,"456642509691580416",https://twitter.com/colelyons12/status/456642509691580416
SecretsPostsMY©,twtsecretsmy,2014-02-26 20:12,9,7,"I've been diagnosed with dysthymia. I haven't told anyone. I'm scared. I'm sad, angry, confused and relief.",,,,"438662909409775617",https://twitter.com/twtsecretsmy/status/438662909409775617
chris,cgeravelis14,2014-02-08 05:30,0,5,"Sad to say a can no longer complete my # neknomination because I've been diagnosed with strep throat # heartbroken",,,# #,"431917949708824577",https://twitter.com/cgeravelis14/status/431917949708824577
MC,m_colc,2014-01-22 02:55,1,3,"yeah let's tell everyone i have depression when i've not actually been diagnosed with it i'm just a bit sad",,,,"425718379140616194",https://twitter.com/m_colc/status/425718379140616194
ZachCuhry,ZachCuh,2013-12-16 08:44,0,2,"Guys sad story. I've been diagnosed with idgaf. It's a serious case",,,,"412397715486543872",https://twitter.com/ZachCuh/status/412397715486543872
Lisa,Fleecek,2013-12-11 07:16,0,1,"@ krswsesrs44 they work? I've been diagnosed with SAD recently!",,@,,"410563694079533056",https://twitter.com/Fleecek/status/410563694079533056
Norman Shenley,NormanWShenley,2013-11-26 17:21,1,2,"Sad news folks. I've just been diagnosed with Tubular Bells.",,,,"405280144685690880",https://twitter.com/NormanWShenley/status/405280144685690880
UK Cop Humour,UKCopHumour,2013-09-24 17:28,1,2,"I've just been diagnosed with depression ... ... That made me feel sad.",,,,"382451591405928448",https://twitter.com/UKCopHumour/status/382451591405928448
Alexis,_alexismerida,2013-09-12 13:08,4,2,"Sad news guys... i've been diagnosed with the deadly case of Procastinitis ... The doctor told me i won't make it past the 1st semester...",,,,"378037322974887936",https://twitter.com/_alexismerida/status/378037322974887936
Keith Robinson,1keithrobinson,2013-08-02 18:42,5,0,"Just got some sad news from my Dr. I've been diagnosed with a rare disease called PAC-Olosis, something in the abdomen that prevents a 6pack",,,,"363263422655647744",https://twitter.com/1keithrobinson/status/363263422655647744
Wicked Angelheart,glittergirlD43,2013-07-07 22:22,0,3,"I'm very sad to inform all of you...that I've just been diagnosed with.... NCD=NO CAN DO!!",,,,"353896765990248448",https://twitter.com/glittergirlD43/status/353896765990248448
COOL GUY,BakaFlocka,2013-06-19 22:55,0,2,"I'm sad that I've been diagnosed with an autoimmune disease, but I'm happy that after 6 years we finally know what the fuck is wrong with me",,,,"347382069791440898",https://twitter.com/BakaFlocka/status/347382069791440898
sophie,planetnutcase,2013-05-23 02:29,0,0,"still can't believe someone told me earlier that i can't be sad because i've not been diagnosed with depression soz 4 bein 2 sad 4 u",,,,"337289088270995459",https://twitter.com/planetnutcase/status/337289088270995459
Ryan Riley,rriley333,2013-05-01 03:51,0,1,"I've been diagnosed with ADHD, PTSD, and SAD. I have more friggin' acronyms attached to me than a college professor.",,,,"329337355829923840",https://twitter.com/rriley333/status/329337355829923840
one funny bitch,bugsareok,2013-04-17 02:27,4,2,"Unlike many people, I've actually been diagnosed with depression. So quit this fucking pity parade because you're sad.",,,,"324242740273618944",https://twitter.com/bugsareok/status/324242740273618944
Maggy Whitehouse,MaggyWhitehouse,2013-03-08 19:51,1,0,"I've just been diagnosed as vegan-intolerant. It's very sad but I'll just have to learn to live with it.",,,,"310010000133218305",https://twitter.com/MaggyWhitehouse/status/310010000133218305
Tyler White,TylerWhite28,2013-02-27 18:40,0,8,"Hi everyone, sad to say I've been diagnosed with a lymphoma (cancer), will be starting chemo next week but I'm going to kick cancers arse!!",,,,"306730524712525824",https://twitter.com/TylerWhite28/status/306730524712525824
derek dewosky,derekdewosky,2012-11-02 08:24,1,2,"I'm sad to say, your friend, me, is bed-ridden. I've been diagnosed with senioritis and it's not looking too good. Candygrams are encouraged",,,,"264176035191463936",https://twitter.com/derekdewosky/status/264176035191463936
Jess Padilla,jpardiana,2012-10-01 10:13,0,1,"@ theJessFrye samesies! I diagnosed myself with ADHD lol I've been like that all wkend#sad",,@,#sad,"252607180841299968",https://twitter.com/jpardiana/status/252607180841299968
Chans Life,chantellmaria,2012-08-09 00:07,1,1,"So sad 2 hear that Bob Hoskins has been diagnosed with Parkinson's. I've always admired him, he seems like a real gent. God bless him x",,,,"233247994319863808",https://twitter.com/chantellmaria/status/233247994319863808
Obie Fernandez,obie,2009-11-10 03:26,0,3,"RT @ JerryWeinberg: I've been diagnosed with fatal thymic carcinoma. Follow my progress and show support at http://bit.ly/P1uxd (sad!)",,@,,"5567967279",https://twitter.com/obie/status/5567967279
wallingf,wallingf,2009-11-10 01:15,0,0,"Sad news! RT @ JerryWeinberg:I've been diagnosed with fatal thymic carcinoma. Follow my progress and show support at http://bit.ly/P1uxd",,@,,"5564942447",https://twitter.com/wallingf/status/5564942447
Jonathan Andrew Hume,MrHume,2009-10-25 21:23,0,0,"I've just read that Andrew Lloyd Webber has been diagnosed with Prostate Cancer. So sad. Hope he gets better.",,,,"5147580515",https://twitter.com/MrHume/status/5147580515
Dave Turo-Shields,anxietydepress,2009-09-08 02:21,0,0,"I&#39;ve been diagnosed with ADD-I/SAD/GAD - Social Anxiety Forum http://tinyurl.com/mcm2uf",,,#39,"3824153326",https://twitter.com/anxietydepress/status/3824153326
Terissa,ter1ssa,2009-08-12 17:35,0,0,"I've been diagnosed with SAD syndrome by @ allystephen, I knew something was up this Summer!",,@,,"3263237308",https://twitter.com/ter1ssa/status/3263237308
❄️Meghan🐝,meghangwine,2009-03-30 02:45,0,0,"@ momexperience I've been keeping up with her story since she was diagnosed and I'm so incredibly sad. It was so hopeful, even a week ago.",,@,,"1413605610",https://twitter.com/meghangwine/status/1413605610