,id,created_at,text
0,1066774608110645248,2018-11-25 19:24:20,rt @fordnation we need to listen to front line health care staff to hear idea about how to improve hallway health care they're best posit
1,1063897958331101184,2018-11-17 20:53:34,rt @celliottability packed room for today's ministry session with my friend and colleague @macleodlisa great to update members on our imp
2,1063802297132695554,2018-11-17 14:33:26,clapping clapping clapping https://t.co/os22o4zgmf'
3,1063761030352904193,2018-11-17 11:49:28,kicking off convention with a bang so proud to be a small part of a government #forthepeople #pcpo18 https://t.co/jdrr4xnmo8'
4,1063266960698425345,2018-11-16 03:06:12,rt @alexmunter_ this tweet more relevant than ever believed it then believe it now n #onpoli https://t.co/musjlq3x6q'
5,1063108239984857088,2018-11-15 16:35:30,excited to catch up with friends and colleagues this weekend https://t.co/9pjrx8lsnp'
6,1062915079178502144,2018-11-15 03:47:57,as someone who suffers from bipolar disorder i have the utmost respect for @macleodlisa for being brave enough to https://t.co/iq6kqv6pag'
7,1061835305731399680,2018-11-12 04:17:19,rt @ontarionewsnow 100 years ago the first world war came to an end premier ford was at queen's park today to honour the men and women
8,1061336334525173760,2018-11-10 19:14:35,rt @celliottability as deputy premier minister of health and long-term care and mpp i am proud to have worked with our government to br
9,1060533187611373569,2018-11-08 14:03:10,rt @pbethlenfalvy an insightful panel discussion at the #womeninpolitics event tonight featuring @agalbraith @jenni_byrne @katlynharris
10,1059980277735399425,2018-11-07 01:26:06,rt @sjefferies73 last year we learned a north bay legion was forced to sell its property because of skyrocketing hydro bills n nyesterday
11,1058530211174727681,2018-11-03 01:24:03,rt @ongov on november 11 we honour the heroes who serve our country with a moment of silence find your moment at a #remembranceday cerem
12,1057678203265970177,2018-10-31 16:58:29,rt @yelich_ivana prime minister @justintrudeau has already admitted that large emitters will get a major discount under his carbon tax pla
13,1056990341600079873,2018-10-29 19:25:10,rt @celliottability i just got my flu shot i'm now challenging my colleagues community leaders and all ontarians to get the free flu sho
14,1056953194981539840,2018-10-29 16:57:33,rt @celliottability flu season is upon us so today i'm challenging my colleagues community leaders and everyone across ontario to get t
15,1056546393844785157,2018-10-28 14:01:04,#hallowinning with #teamelliott xf0 x9f x8e x83 https://t.co/jkeyqfg934'
16,1056307494891503616,2018-10-27 22:11:46,rt @fordnation very sad to see the tragic events in pittsburgh today my heart goes out to the families and loved ones of the victims we
17,1055638882417557504,2018-10-26 01:54:57,rt @celliottability the new @mackenziehealth vaughan hospital will use technology to create a seamless care experience for patients and i
18,1055587179223756800,2018-10-25 22:29:30,rt @ontariopcparty our big win has started a new chapter not only in our province's history but in the history of our party to mark this
19,1053639309222383616,2018-10-20 13:29:21,proud to support @michaelfordto for city council https://t.co/vui3l6m3pv'
20,1052858515662999552,2018-10-18 09:46:45,rt @fordnation as one of the murderers of kristen french leslie mahaffy and tammy homolka he deserves to spend the rest of his life in
21,1050907106235301888,2018-10-13 00:32:33,all politics is local proud to join the @ontariopcparty grassroots movement in my new home riding of spadina-fort https://t.co/jnefiuolt7'
22,1050357291374002176,2018-10-11 12:07:47,rt @michaeltibollo this week i'm reminding everyone to look listen and learn about fire safety during this year's fire prevention week
23,1050016116985204736,2018-10-10 13:32:05,nearly one year ago i was diagnosed with bipolar disorder managing my mental illness is something i work at every https://t.co/asv96etfsa'
24,1050001681554055168,2018-10-10 12:34:43,rt @stephenharper conservatism begins with the issues it needs to address rather than the policies it wants to apply #righthererightnow h
25,1049849787812589568,2018-10-10 02:31:09,rt @ihorkorbabicz we @abacusdataca will continue to track to see if this shifts and when why particularly in relation to this measure o
26,1049848701513011200,2018-10-10 02:26:50,rt @ontarionewsnow the first 100 days ontario's government for the people has been working hard to deliver on our promises we've accompl
27,1049546050296586240,2018-10-09 06:24:12,rt @rodphillips01 what's unbelievable is that 6 provinces and counting have rejected your ineffective carbon tax plan yet you are st
28,1048627397480857600,2018-10-06 17:33:48,rt @fordnation we will fight the carbon tax and get justin trudeau's hands out of our pockets https://t.co/pfyava8kqg'
29,1048627337192001536,2018-10-06 17:33:34,@dannozy take care of yourself
30,1048562589234581505,2018-10-06 13:16:17,rt @lisathompsonmpp happy world teachers day in today's world there are few jobs more important than teaching as the minister of educa
31,1048264417580896256,2018-10-05 17:31:27,rt @celliottability beyond grateful to the @bridgepointto 4 south team for their remarkable care during my time as a patient during my re
32,1047680458291630080,2018-10-04 02:51:00,we're taking immediate action to deliver on our promise to add 15 000 new long-term care beds in five years https://t.co/oyea2w55gv'
33,1045334741543735299,2018-09-27 15:29:58,rt @fordnation i spoke with tori stafford's father rodney i told him that i will do everything in my power to encourage minister @ralphg
34,1043671664465260544,2018-09-23 01:21:29,#firstdayoffall vibes with @richardclark at #fordfest https://t.co/ntatepwgys'
35,1043598760645931010,2018-09-22 20:31:48,rt @celliottability our thoughts are with all in the ottawa-gatineau region impacted by the tornado thank you to all the first responders
36,1043455670891307008,2018-09-22 11:03:13,rt @pbethlenfalvy with the release of the public accounts and the findings of the financial commission of inquiry we're getting to the bo
37,1043126950208974848,2018-09-21 13:16:59,this is a government that will spend smarter work smarter respect taxpayers and help businesses grow https://t.co/yg3nfytwru'
38,1042814196986126339,2018-09-20 16:34:13,rt @celliottability pleased to speak this morning at #fddss2018 hosted by @camhnews looking forward to continued discussions as we work t
39,1041051127947685888,2018-09-15 19:48:25,clapping clapping clapping https://t.co/trtfnhdt1v'
40,1041019706222829569,2018-09-15 17:43:33,rt @celliottability back at queen's park today working hard to deliver results #forthepeople #onpoli https://t.co/txiusl3m0d'
41,1040426874365779968,2018-09-14 02:27:51,rt @sjefferies73 while the ndp play petty games to delay the passage of this urgent bill @fordnation and the @ontariopcparty team will be
42,1040381442247806978,2018-09-13 23:27:19,rt @ontarionewsnow the efficient local government act will end political gridlock at toronto city hall make government more efficient and
43,1039653102851444742,2018-09-11 23:13:10,rt @sylviajonesmpp the @canadianforces are among the true heroes of afghanistan the world is safer thanks to their service we'll pay tri
44,1039585172549718016,2018-09-11 18:43:14,rt @michaeltibollo on this canadian national day of service commemorating the heinous terror attacks of 9 11 we remember the past and al
45,1039138500367532033,2018-09-10 13:08:19,rt @onthealth it's #worldsuicidepreventionday talking about suicide doesn't make someone suicidal it may prevent it https://t.co/b4kbke...
46,1039129440146608129,2018-09-10 12:32:19,rt @fordnation today at sundown the jewish community welcomes the new year according to the hebrew calendar on behalf of my family and th
47,1038182348393725952,2018-09-07 21:48:55,rt @pbethlenfalvy since launching our planning for prosperity public consultation last week we've already received nearly 5 000 responses
48,1037870586855342080,2018-09-07 01:10:05,rt @exploreon we're excited @tiff_net kicks off today we're happy to support one of the top film festivals in the world did you know ont
49,1037754268869124096,2018-09-06 17:27:52,rt @celliottability a pleasure to address the @onthospitalassn at their #healthcareleadership summit to discuss how we can work together t
50,1037754182869164032,2018-09-06 17:27:32,rt @onthealth minister elliott will work with ontario's hospital sector to improve the delivery of health care for the people during the
51,1037034898144587777,2018-09-04 17:49:21,rt @onthealth good morning ontario start the school year off right #getactive by walking to class https://t.co/dki2yuffzn #backtoschoo
52,1036947955138408448,2018-09-04 12:03:52,so glad i got to see this before leaving #ottawa thanks @dannozy #scitechbrick https://t.co/fuiurjixcr'
53,1036602324800692224,2018-09-03 13:10:28,last night's entertainment @tiff_net #tiff18 https://t.co/yb0z5amlsy'
54,1035999730487250945,2018-09-01 21:15:58,proud #torontonian in the making https://t.co/jsesuyzx2m'
55,1035925184929296384,2018-09-01 16:19:45,so happy to have you xf0 x9f x87 xa8 xf0 x9f x87 xa6 xf0 x9f x87 xba xf0 x9f x87 xb8 https://t.co/mfxly1flit'
56,1035176511958134789,2018-08-30 14:44:47,rt @stephenharper i'm excited to announce that my latest book right here right now politics and leadership in the age of disruption wi
57,1035101992073539589,2018-08-30 09:48:40,rt @fordnation it is absolutely critical that we get a nafta deal done hundreds of thousands of jobs here in ontario are at stake my fir
58,1034931333162848257,2018-08-29 22:30:32,rt @fordnation no family should have to choose between heating and eating eliminating the carbon tax will lower natural gas prices and b
59,1034062434477264896,2018-08-27 12:57:50,rt @fordnation icymi summer is almost over but our government for the people has been working hard to deliver for you here are just a f
60,1034062027264847874,2018-08-27 12:56:13,rt @sflecce the @ontariopcparty caucus is united behind @andrewscheer n nunited to oppose the liberal's job-killing carbon tax run-away de
61,1034061283656708102,2018-08-27 12:53:16,rt @andrewscheer united #cpc18 https://t.co/j1dhs7k6kr'
62,1012793197666361344,2018-06-29 20:21:29,@fentyy lol classic kim
63,879877229022466048,2017-06-28 01:40:53,@freedomsupport what is wrong with your network i'm in ottawa and can't dial out most unreliable service ever
64,852311867808722944,2017-04-13 00:05:59,@pierrepettigrew addresses @exparl audience about the future of globalization and canada's place in an emerging world order
65,673899776379760644,2015-12-07 16:20:01,@capnewsonline kicking the habit canadian smokers are butting out check out the story here https://t.co/r7t61jmg92'
66,673899291153305601,2015-12-07 16:18:06,@capnewsonline check out what the ottawa community is doing to welcome #syrian refugees to the community https://t.co/efbfdhuueh'
67,626387302818926592,2015-07-29 13:42:25,@paulhasin want to come on cjad to talk about security cameras in parks e-mail chazanhayley @gmail com
68,613022186790490112,2015-06-22 16:34:13,@zack_hample i'm hayley and i'm with ctv in toronto interested in coming on our show tomorrow email hayley chazan @bellmedia ca for info
69,612042947991863296,2015-06-19 23:43:04,@bluejays taking in a jays game http://t.co/lyn2n9yxs6'
70,611918457660133376,2015-06-19 15:28:23,@theshipwatcher my name is hayley and i'm from ctv i have some questions for you re the st laurent e hayley chazan @bellmedia ca
71,611615402821582848,2015-06-18 19:24:09,@leahmclaren i am a chase producer at ctv any chance you want to join one of our panel discussions today e hayley chazan @bellmedia ca
72,610834164808552449,2015-06-16 15:39:48,@strumoutthesad i'm so sorry for your loss i'm hayley from ctv are you available for an interview about jeremy hayley chazan @bellmedia ca
73,610825486692954113,2015-06-16 15:05:19,@_senaalex i'm so sorry for your loss i'm hayley from ctv are you available for an interview about jeremy hayley chazan @bellmedia ca
74,610824977915473920,2015-06-16 15:03:17,@melhem54 i'm so sorry for your loss i'm hayley from ctv are you available for an interview about jeremy hayley chazan @bellmedia ca
75,610824911205081089,2015-06-16 15:03:02,@randyday27 i'm so sorry for your loss i'm hayley from ctv are you available for an interview about jeremy hayley chazan @bellmedia ca
76,610154189256159232,2015-06-14 18:37:49,@katiemelua any chance your mum will talk on canadian tv about the zoo animals in tbilisi e-mail hayley chazan @bellmedia ca for info
77,610114522611847168,2015-06-14 16:00:12,@ellsbels any chance your boyfriend might want to come on canadian tv to talk about the united flight e-mail hayley chazan @bellmedia ca
78,610108393941020672,2015-06-14 15:35:51,@surrogatenerd are you interested in coming on canadian tv to talk about the united flight e-mail me hayley chazan @bellmedia ca
79,610107364142907393,2015-06-14 15:31:45,@kpowelleps any interest in coming on canadian tv to talk about the united flight e-mail me at hayley chazan @bellmedia ca
80,610105529822760960,2015-06-14 15:24:28,@joncoventry would your wife be intersted in coming on canadian tv to talk about the united flight e-mail me at hayley chazan @bellmedia ca
81,610084399523176448,2015-06-14 14:00:30,@ericakeogan any interest in coming on canadian tv to talk about your the united flight e-mail me for details hayley chazan @bellmedia ca
82,610083889692962816,2015-06-14 13:58:28,@salliecoventry any interest in coming on canadian tv to talk about the united flight e-mail me for details hayley chazan @bellmedia ca
83,610075692282155009,2015-06-14 13:25:54,@anthonyglees i am from ctv in canada are you available to facetime into our show today to chat re snowden hayley chazan @bellmedia ca
84,605062187690946560,2015-05-31 17:24:01,@alexanderabdo interested in coming on canadian television to talk patriot act e-mail me at hayley chazan @bellmedia ca for more details
85,605061675893571584,2015-05-31 17:21:59,@neemaguliani interested in talking patriot act on canadian television today message me at hayley chazan @bellmedia ca for more details
86,603302911817478145,2015-05-26 20:53:17,@annmsutton interested in chatting about the houston floods on canadian tv e-mail hayley chazan @bellmedia ca for more details
87,603302308596883456,2015-05-26 20:50:53,@jsprinkles interested in chatting about the houston floods on canadian television e-mail hayley chazan @bellmedia ca for more details
88,603289557535170561,2015-05-26 20:00:13,@hunterhutch interested in chatting about the houston floods on canadian tv tomorrow e-mail hayley chazan @bellmedia ca for more details
89,603287888038633472,2015-05-26 19:53:35,@aaronpauley interested in chatting about the houston flood on canadian tv tomorrow e-mail hayley chazan @bellmedia ca for details
90,603286677507964932,2015-05-26 19:48:47,@artsurrounds interested in chatting about the houston flood on canadian tv tomorrow e-mail hayley chazan @bellmedia ca for details
91,602834813586911233,2015-05-25 13:53:14,@mjb2364 mike would you be willing to talk to ctv news channel about the flooding in cache creek e-mail me at hayley chazan @bellmedia ca
92,601464653990891521,2015-05-21 19:08:42,@alex_harmer_ interested in joining us for a chat on ctv news channel e-mail me at hayley chazan @bellmedia ca
93,601462048149483521,2015-05-21 18:58:21,@m_glendenning are you available for an interview on ctv news channel tomorrow please contact hayley chazan @bellmedia ca for more details
94,600423443914457088,2015-05-18 22:11:19,@sundonib interested in chatting with us on ctv news channel tomorrow please contact me at hayley chazan @bellmedia ca for more details
95,600409268010033153,2015-05-18 21:14:59,@6thsens i'm a chase producer at ctv news channel interested in having you on our show please message me at hayley chazan @bellmedia ca
96,599938092166991872,2015-05-17 14:02:42,@jschool_cu mary rosedale getting ready to speak about the nursing role in ect at the isen conference in toronto #isen #ect #patientcare
97,599909002236076032,2015-05-17 12:07:06,@carolkivler thank you for the books so nice to finally meet you in person your story is inspiring
98,598130015302242308,2015-05-12 14:18:03,@noahshachtman any interest in chatting about the x 37b space plan on canadian tv media tomorrow contact hayley chazan @bellmedia ca
99,598127973024321537,2015-05-12 14:09:56,@jeff_foust any interest in chatting x 37b on canadian tv looking for a guest for tomorrow morning contact hayley chazan @bellmedia ca
100,597410869618827266,2015-05-10 14:40:25,@2theimp would you be intersted in coming on ctv news channel to talk about mother's day for the motherless hayley chazan @bellmedia ca
101,578929465948028928,2015-03-20 14:41:55,@evelynmharford @laurejardin @timothyjforster makerspace prosthetic challenge finale #engineering #ottawau http://t.co/zqtb0fpery'
102,555390603161505792,2015-01-14 15:46:53,@brazilbound2015 are you free to meet sometime tomorrow e-mail me to let me know hayley chazan @carleton ca
103,555371046720012288,2015-01-14 14:29:10,@brazilbound2015 i am a masters of journalism student at carleton and would love to promote your cause
104,555370915211792384,2015-01-14 14:28:39,@brazilbound2015 would you be interested in participating in a short interview tomorrow about your fundraising efforts
