username,user_handle,date,retweets,favorites,text,geological_location,mentions,hashtags,tweet_id,permalink
🍒,sikhmixgirl,2018-09-28 20:33,9,37,"I’ve been in the same situation when I was 12 . parents should think twice before making any decisions don’t just think about themselves. i have been diagnosed with minor bipolar disorder which related to depression because of the same situation until now and it’s not good .",,,,"1045667914374774784",https://twitter.com/sikhmixgirl/status/1045667914374774784
Amanda Ulrich,Amanda_Ulrich1,2018-09-21 04:02,1,6,"Mental illnesses I have been diagnosed with: -Bipolar Type II -Obsessive Compulsive Disorder -Agoraphobia -Depression -Anxiety And I’m not ashamed! # NotAshamedOfMentalillness # MentalHealthAwareness",,,# #,"1042881619017846790",https://twitter.com/Amanda_Ulrich1/status/1042881619017846790
chynna :3,chybbb,2018-09-11 01:39,5,29,"today is national suicide prevention day, so i might as well do my thread on my experience with bipolar disorder today... but before i start, i want to disclaim that these are my experiences, and i have been officially diagnosed.",,,,"1039221856501460994",https://twitter.com/chybbb/status/1039221856501460994
5,blake_fine,2018-09-08 10:40,0,30,"after over 3 years of back and forth diagnoses and not being even remotely sure of what’s going on i have been officially diagnosed with bipolar disorder and while i’m terrified of what recovery will be like i am relieved that i can actually find it now.",,,,"1038270901538545665",https://twitter.com/blake_fine/status/1038270901538545665
Goddess Raven 💆🏻‍♀️,SuccubusRaven,2018-08-20 03:24,7,12,"I have been diagnosed with bipolar disorder, depression, and severe social/general anxiety since I was 13. I found the right medication balance by the time I was 15, and now I’m turning 20 in February. I came a long way in life and survived my attempts to end it all. I am very",,,,"1031275839390982145",https://twitter.com/SuccubusRaven/status/1031275839390982145
𝕄𝕒𝕕𝕚𝕤𝕠𝕟 🦉,carnelianchaos,2018-07-22 00:38,2,21,"A lot of people are surprised to hear that I have been diagnosed with ADHD & a general anxiety disorder, & that bipolar disorder & clinical depression run in my family. I think my Sagittarian Optimism is a good cover, my 12th house mars makes it look like I am cool-headed, lol.",,,,"1020724755304001537",https://twitter.com/carnelianchaos/status/1020724755304001537
聖人🍱,opiodae,2018-06-29 03:44,2,11,"So.... I just got out of the psychiatric hospital after a whole week. I have been diagnosed with bipolar disorder, and possible BPD, so...the next few months I may be busing myself because I now need a new job, as, other things have happened—big change",,,,"1012436529321521152",https://twitter.com/opiodae/status/1012436529321521152
🍂emmalee🍂,emmalee_step,2018-06-16 10:43,0,5,"My name is Emmalee. I have been diagnosed with Trichotillomania, Bipolar 1, Borderline personality w psychosis, PTSD, and ADHD. I take 10 pills a day. I’ve been to 2 hospitals the last two months. My life’s hard. It’s time to end the stigma about mental health. It’s real.",,,,"1007830898027454464",https://twitter.com/emmalee_step/status/1007830898027454464
Nicole🌸,diredysphoric,2018-06-13 04:39,1,4,"I've been diagnosed with bipolar, BPD, and PTSD. I have been medication free for a little over a year now. I can go to school, have a job, and live on my own; although it can be very difficult. We can function in the world, and we deserve a place in society. # EndTheStigma",,,#,"1006652205661937664",https://twitter.com/diredysphoric/status/1006652205661937664
donna miller,donnapankey45,2018-06-07 06:59,5,40,"@ MauriceBenard I have been diagnosed with bipolar since 2004. I've been on multiple medications. Finally found one that works for me. Thank you for showing people that u can be normal on meds.",,@,,"1004513059665301505",https://twitter.com/donnapankey45/status/1004513059665301505
Regan,rgncny,2018-05-26 17:53,5,46,"I was diagnosed with Bipolar in 2016. After 2+yrs of waiting lists, I have been unable to access any mental health services on the NHS. I’ve had to borrow money to pay for a £400/hour private psychiatrist appointment just to access medication I literally can not function without.",,,,"1000328978631192579",https://twitter.com/rgncny/status/1000328978631192579
TheBooklynite,thebooklynite,2018-05-17 23:01,0,10,"I have been officially diagnosed with bipolar, yay me pic.twitter.com/8Sy0bWcG9s",,,,"997145203889844224",https://twitter.com/thebooklynite/status/997145203889844224
Erin Meier,ErinJMeier,2018-05-15 19:03,0,25,"# MentalHealthAwarenessWeek I have been diagnosed bipolar for nearly 20 years. Some days are better than others as the battle with my mind can be exhausting. Thankful 4 the wonderful people in my life who get me. Words aren’t always necessary, sometimes a shoulder will do.",,,#,"996360536597188608",https://twitter.com/ErinJMeier/status/996360536597188608
Khaya Sibulele Koko,khayakoko88,2018-04-19 19:58,31,16,"# KaraboMokoena: "I have been diagnosed with Bipolar disorder. I have received medication in this regard." - Mantsoe.",,,#,"986952211291885568",https://twitter.com/khayakoko88/status/986952211291885568
lo 🌈,tarsusfour,2018-04-19 08:11,0,4,"by the way I can call myself bipolar and make jokes about it because I have been diagnosed with manic depression aka bipolar disorder by two different therapists/psychiatrists and am probably high on mood stabilizers at this very moment. u can't.",,,,"986774222411386880",https://twitter.com/tarsusfour/status/986774222411386880
slaysia,asia_not_africa,2018-02-02 10:54,0,50,"In December I got diagnosed with bipolar disorder and last week I got need medication for it and since then I have been SO HAPPY. And not happy like manic, but actually genuinely joyful!!!!!!!",,,,"959273712678834177",https://twitter.com/asia_not_africa/status/959273712678834177
Mike Leotis,mikeleotis,2018-02-01 08:09,3,6,"Thank You for sharing. Congratulations on your recovery! I too am diagnosed with OCD, as well as Bipolar Disorder. I have been walking out my recovery for over 5 years now. It's very brave to share like you have. Kudos buddy! # BellLetsTalk",,,#,"958869989347483649",https://twitter.com/mikeleotis/status/958869989347483649
🎃👽~Kris~👽🎃,Kiwi_Milkk,2018-01-17 10:51,2,6,"DBT and medications have honestly saved my life. i have been diagnosed with Bipolar II and Borderline Personality Disorder. my medication helps with the bipolar issues /land DBT has helped with the BPD. i used to hate taking meds cuz i thought it made me weak. that's not true.",,,,"953474760557678592",https://twitter.com/Kiwi_Milkk/status/953474760557678592
Manwithadog,Manwithadog1,2017-12-03 02:12,3,13,"I have been diagnosed with acute bipolar disorder. I have mixed feelings. Not nice to be labelled but it’s a relief in a way as it answers a lot of questions I had all my life. Good to share.",,,,"937036876619403264",https://twitter.com/Manwithadog1/status/937036876619403264
Becky, but like, all spooky & shit,Becky_Fal,2018-09-03 23:35,0,12,"I appreciate you putting “safe” in here. When I was a kid I went to a therapist who basically tried to scare me into behaving right (I was diagnosed with bipolar disorder when I was 10) by yelling, scaring me, etc. Since then I have been diagnosed with PTSD by another therapist.",,,,"1036653820863021057",https://twitter.com/Becky_Fal/status/1036653820863021057
Tara M Godfrey,TaraGodfrey33,2018-09-03 11:41,1,2,"I feel your pain. I have been diagnosed with Bipolar for over 10 years and I still deal with having this illness everyday. The illness is apart of us, it doesn’t define us.",,,,"1036474251946143745",https://twitter.com/TaraGodfrey33/status/1036474251946143745
🔜Valkyrie Dimension Fall 2018,Mandymewcakes,2018-08-30 03:51,0,3,"THIS. Especially because right now I’m on a medical leave from my job. I HAVE been formally diagnosed with Bipolar 2, Major Depressive Disorder, Anxiety, and PTSD. Don’t use these these important and real diagnosis’s because you’re having one bad stressful day. I live it daily. https://twitter.com/lextra0rdinary/status/1034281500458528771 …",,,,"1034906328240676864",https://twitter.com/Mandymewcakes/status/1034906328240676864
resting butch face,angeryblackgirl,2018-08-28 22:47,0,8,"In June I went into a critical psychiatric unit as a voluntary patient. Since then I have been (some formally some informally) diagnosed with BPD, bipolar II, CPTSD and bulimia. To be clear, ALL of these conditions are FATAL if not treated",,,,"1034467573839089665",https://twitter.com/angeryblackgirl/status/1034467573839089665
Emy,CrazyGirlEmy,2018-08-20 19:49,0,4,"I have been dealing with my mental health literally my entire life. I wasn't properly diagnosed until I was 27. The best thing I ever did for myself was get sober, and that taught me acceptance. I don't like being bipolar, but once I accepted it, it became a lot easier to live. https://twitter.com/ugwdead/status/1030799211288309760 …",,,,"1031523711868915712",https://twitter.com/CrazyGirlEmy/status/1031523711868915712
hannah rose,hrose716,2018-08-16 05:44,0,4,"i turn 25 in less than a month. my 24th year has really thrown me for a whirl. i have been diagnosed and undiagnosed for multiple illnesses, mental and physical. after one long year i’ve finally been diagnosed with having PTSD, bipolar disorder, an auto immune disease, and more.",,,,"1029861354063065088",https://twitter.com/hrose716/status/1029861354063065088
💙 TweetyBird 💙,suesea2010,2018-08-14 03:56,0,2,"I knew you understood by the memes you've sent. I agree with you and am grateful for your thoughtfulness. I have been diagnosed rapid cycling bipolar w/PTSD...and gen anxiety. Some days are just better. Some feel unlivable. ty https://twitter.com/unbrokeMs1/status/1029036180040376320 …",,,,"1029109479500128256",https://twitter.com/suesea2010/status/1029109479500128256
Sofiane,LeFrenchAccent,2018-07-25 23:40,0,2,"Hey folks, it’s me your friendly neighbor Psychotic Bipolar. Guess what? I have been diagnosed with ADHD too now and I don’t know how to deal with it.",,,,"1022159686639001600",https://twitter.com/LeFrenchAccent/status/1022159686639001600
PitchFork Radio,LillyMunster3,2018-07-20 08:00,3,3,"Fake 'bipolar' disease in children. I have been seeing youngsters who have been diagnosed with this nonsense, and put on the worst pharmaceuticals!!! https://jonrappoport.wordpress.com/2018/07/18/the-secret-behind-fake-bipolar-disease-in-children/ …",,,,"1020111218273468416",https://twitter.com/LillyMunster3/status/1020111218273468416
Lenny S.,Lenardthephotog,2018-06-28 03:15,2,2,"Here's my thing. I have been teased, harassed, bullied, you name it. I was diagnosed with Major Depressive Disorder and Bipolar Disorder. That withstanding I still recognize my strength and try to use it on a daily basis to make others feel good about themselves.",,,,"1012066801025519618",https://twitter.com/Lenardthephotog/status/1012066801025519618
Al,AlexZigg,2018-06-09 00:19,0,10,"A little over a month ago, I was diagnosed with Type 2 Bipolar disorder. Since then, I have been trying to figure out how to manage my mental health and combat the side effects that come with it. The reason I am tweeting about this is because i need it to be known how important",,,,"1005137228329299968",https://twitter.com/AlexZigg/status/1005137228329299968
TrapPope,_DNASTY_,2018-05-29 12:39,0,1,"This will be my first time openly saying that I have been diagnosed with bipolar 2 disorder. So I’m sorry to everyone I’ve done wrong or pushed out of my life bc of this. I have since seeked professional help and am trying everyday to become a better me.",,,,"1001337308451307520",https://twitter.com/_DNASTY_/status/1001337308451307520
˞,stringimireid,2018-05-24 03:27,0,1,"yes i have been in a toxic relationship. it wasn’t about breaking up all the time, i tried to help them with their issues and they kept putting me down. one was diagnosed as bipolar the other had other issues, my feelings my all was worth nothing they left me bleeding i cured em https://twitter.com/bizzievibing/status/999385533494317056 …",,,,"999386427782782976",https://twitter.com/stringimireid/status/999386427782782976
Cindy South,CindySouth9,2018-03-18 12:29,1,19,"Thank you for your story! I was diagnosed at 17 with bipolar after my 2nd suicide attempt and institutionalized for 8 weeks. I have been on and off my meds over the last 25 years and I have finally realized that life is so much better on my meds than off. TY @ MauriceBenard",,@,,"975242670053429248",https://twitter.com/CindySouth9/status/975242670053429248
Jacquie-anne 🏳️‍🌈,JAMY_2018,2018-02-22 16:48,0,6,"Not my personal account but some might be wondering how the assessment went regarding my mental health. I have been diagnosed with a mood disorder (not a specific one as my symptoms crossover with bipolar & borderline personality disorder), also depression & anxiety.",,,,"966610683990339584",https://twitter.com/JAMY_2018/status/966610683990339584
marsha,daaydrxvms,2018-02-01 08:28,1,3,"I have been diagnosed with Generalized Anxiety Disorder, Depression, Panic Disorder, and Social Anxiety. In my future there is a possibility that I may be diagnosed with Bipolar Disorder and/or Psychosis. # BellLetsTalk",,,#,"958874758271057921",https://twitter.com/daaydrxvms/status/958874758271057921
Brando,_bg37,2018-01-31 21:35,2,2,"I have been diagnosed with bipolar disorder and borderline personality disorder for over a decade and have suffered from severe depression and crippling anxiety for twice as long. It’s time we’re all able to be open and honest about those things without fear of stigma. https://twitter.com/Bell_LetsTalk/status/958543360213639168 …",,,,"958710215310012417",https://twitter.com/_bg37/status/958710215310012417
bi-derman ︽✵︽ was @grimmykinss,hopelessrdj,2017-11-28 01:42,0,3,"“She’s not crazy, she’s bipolar.” — Magnus I was afraid to say out loud that i have been diagnosed with bipolar disorder. People acted many different ways and none of them was pleasant. But the moment I stopped believing it makes me crazy gave me a chance to make a peace with it pic.twitter.com/Tath7t4sB3",,,,"935217334918230017",https://twitter.com/hopelessrdj/status/935217334918230017
reminiscent killjoy,the1andonlykow,2017-10-11 11:19,0,4,"Okie I got hella depressed qnd forgot about this but its still today woo well to start I have been diagnosed with depression and bipolar 1",,,,"917967953542500352",https://twitter.com/the1andonlykow/status/917967953542500352
Catie Warren,catie__warren,2017-06-02 15:14,3,296,"Hi, my name is Catie Warren. I have been diagnosed with Bipolar I disorder. I'm manic, depressed, and anxious, and I'm not ashamed.",,,,"870554309775249409",https://twitter.com/catie__warren/status/870554309775249409
Adria,arimaccy,2017-02-12 14:33,0,7,"borderline personality disorder & bipolar 2 disorder. thats what i have been diagnosed with.",,,,"830681189815980032",https://twitter.com/arimaccy/status/830681189815980032
Joy and pain,JoyRoach13,2016-12-30 08:44,0,6,"I decided to join the movement and come out. I have been diagnosed with bipolar and PTSD. # inhonorofcarrie",,,#,"814648313320534016",https://twitter.com/JoyRoach13/status/814648313320534016
mallissa,mizzishyde,2016-08-08 16:25,11,38,"@ vicderbyshire # VictoriaLIVE I have been diagnosed with bipolar. I am inspired by people who are open about their illness. # fightstigma",,@,# #,"762580458974699520",https://twitter.com/mizzishyde/status/762580458974699520
Lauren Ness Monster,notalwaysweak,2016-07-06 07:47,0,3,"2. I have been hospitalised three times with poor mental health. Diagnosed bipolar II/depression/generalised anxiety disorder in 2010.",,,,"750491360201879552",https://twitter.com/notalwaysweak/status/750491360201879552
✨⭐️✨,blonde,2016-07-01 22:17,0,7,"over the years i have been diagnosed with everything from anxiety / depression to ptsd to bipolar.",,,,"748898384493178880",https://twitter.com/blonde/status/748898384493178880
Julie (Cimmy),wavemistress,2016-05-10 00:51,0,2,"I have been diagnosed with ADD and with a kind of bipolar disorder called dysthymia. Staying away from chat ATM tho. Triggered # CSAQT",,,#,"729730592561074176",https://twitter.com/wavemistress/status/729730592561074176
2007 Pete Wentz,taraa_dactyyyl,2016-03-23 22:51,0,8,"I have been diagnosed with depression, anxiety, bipolar disorder, arthritis, fibromyalgia, chronic fatigue syndrome and many other things",,,,"712667979448647680",https://twitter.com/taraa_dactyyyl/status/712667979448647680
Spooky Emo Meme,ThyArtIsMemes,2015-10-13 06:29,0,25,"Recently I have been diagnosed with bipolar along with an obsessive compulsive disorder which have manifested into depression and hypomania",,,,"653714123168067584",https://twitter.com/ThyArtIsMemes/status/653714123168067584
Stigma Fighters,stigmafighters,2015-09-12 19:29,0,4,"I have been diagnosed as Bipolar I with Mixed Episodes http://stigmafighters.com/stigma-fighters-mike-fierro/ … # bipolar",,,#,"642676303397789696",https://twitter.com/stigmafighters/status/642676303397789696
Jersey,SatansTongue,2015-07-07 01:12,104,280,"Hi I'm an Internet teen and I have been self-diagnosed with bipolar bisexual gaycurious anxiety antisocial depression & my followers love it",,,,"618120402213036033",https://twitter.com/SatansTongue/status/618120402213036033
Liy,AliyahSamiraa,2015-03-06 08:24,1,4,"It's official, I have been self diagnosed with bipolar disorder.",,,,"573655477327896576",https://twitter.com/AliyahSamiraa/status/573655477327896576
Ms. Blatantly Honest,Blatant_Honesty,2015-01-29 06:53,0,3,"I gotta be real here. I have been diagnosed with provisional bipolar disorder, ADHD, and general anxiety disorder. But I'm living.",,,,"560586512144670720",https://twitter.com/Blatant_Honesty/status/560586512144670720
NJ Speed,NewJerseySpeed,2015-01-29 04:07,0,4,"I have been diagnosed with the onset of bipolar disorder and I'll be totally honest guys I'm scared to death",,,,"560544834944241666",https://twitter.com/NewJerseySpeed/status/560544834944241666
Kiko ☯️🌹,x_VintageBesos,2015-01-12 23:20,0,3,"I have been diagnosed with bipolar depression and it's annoying when people call themselves these things they aren't.",,,,"554674176808591360",https://twitter.com/x_VintageBesos/status/554674176808591360
Stephanie Dalzell,steph_dalzell,2014-05-06 08:34,5,1,"Buswell: I have been diagnosed with bipolar and depression, doctor's advice is returning to work is an important part of my recovery",,,,"463491984079208448",https://twitter.com/steph_dalzell/status/463491984079208448
byarnoldjorge,ArnoldJorge,2014-03-13 08:07,3,2,"My mood changes so much I assume I'm bipolar. I never sleep at night so I assume I'm insomniac ..I have been diagnosed with neither lol",,,,"443916193729372160",https://twitter.com/ArnoldJorge/status/443916193729372160
Rheumatoid Arthritis,RA_information,2013-10-12 22:15,0,2,"I have been diagnosed with bipolar and also RA a few years ago. Been on quetiapine for BP and sulfasalazine for... http://fb.me/2Fqb9NRrf",,,,"389046662078803971",https://twitter.com/RA_information/status/389046662078803971
Diamond Back,TwanBabyRampage,2013-10-01 10:41,0,2,"I have been diagnosed with bipolar disorder.",,,,"384885775516839936",https://twitter.com/TwanBabyRampage/status/384885775516839936
Nicole Lyons,LithChronicles,2013-08-14 00:29,0,0,"From the inbox: Hi I would like to remain anonymous, but I need some advice. I have been diagnosed with bipolar... http://fb.me/2O9NN2iSY",,,,"367337143741718528",https://twitter.com/LithChronicles/status/367337143741718528
Nicole Lyons,LithChronicles,2013-06-11 02:22,0,0,"Lovely post from the inbox: Hi, my name is Amy, I'm 27 years old and I have been diagnosed with Bipolar type ll,... http://fb.me/KYV3fxYC",,,,"344172861222707201",https://twitter.com/LithChronicles/status/344172861222707201
spooky babe. △⃒⃘ ⚯͛,shandiiileee,2013-06-09 12:17,2,0,"I have been diagnosed with severe anxiety, bipolar, depression, mild OCD and borderline split personality. and it seriously ruins my life.",,,,"343597731161464832",https://twitter.com/shandiiileee/status/343597731161464832
Bipolar Awareness,Stopthestigma,2013-05-07 19:27,0,0,"Fan Post: I have been diagnosed with bipolar 2 when i was 18 or 19 I am currently taking medications for severe... http://fb.me/1ymHB74vv",,,,"331747216479879169",https://twitter.com/Stopthestigma/status/331747216479879169
bodil ♡ leah,ArianrGrade,2013-04-05 03:36,3,3,""They diagnosed me with Bipolar disorder, suicidal thoughts, cutting, anorexial, bulimia.... Why couldn't I have been born n-normal?" -Demi",,,,"319911294935384066",https://twitter.com/ArianrGrade/status/319911294935384066
kim evangelista,kim_cray,2013-03-25 23:01,0,2,"Convinced Mother Nature has been diagnosed with bipolar & that's ok, I have been too. I feel you, girl",,,,"316218315364257793",https://twitter.com/kim_cray/status/316218315364257793
Bipolar Awareness,Stopthestigma,2012-12-12 03:20,0,0,"Fan Post: Oh you do? Awesome. I have been diagnosed with Bipolar 2 and Borderline Personality Disorder. AT this... http://fb.me/N93xnFsh",,,,"278595032624287744",https://twitter.com/Stopthestigma/status/278595032624287744
Dr. Manny Alvarez,drmannyonFOX,2012-11-13 03:31,0,0,"Love and support RT @mysticalminded: @ drmannyonFOX I'm not Famous, but I have been diagnosed with Bipolar II. https://twitter.com/MysticalMinded/status/266379854436499456/photo/1pic.twitter.com/1BeWXN3d",,@mysticalminded @,,"268088665824194560",https://twitter.com/drmannyonFOX/status/268088665824194560
ⓙⓞⓙⓞ,JoAnnaJamison,2012-09-15 04:39,0,1,"I have been diagnosed with adhd, ocd, and severe bipolar depression, it means I'm not perfect in a humans eyes. But I always will be in Gods",,,,"246725005650567169",https://twitter.com/JoAnnaJamison/status/246725005650567169
joeybagofdonuts,liljoeybagz,2012-07-10 14:41,1,0,"@ZachGaik and i have been on web MD and diagnosed ourselves with schizophrenia and bipolar disorder. OKAY SO DEAL WITH IT.",,@ZachGaik,,"222596301722886145",https://twitter.com/liljoeybagz/status/222596301722886145
bp Magazine,bpHopeMag,2012-06-22 21:04,0,0,"Question: Any Suggestions Before I Explode? " 'I have been diagnosed with bipolar,' says Forbes. 'I can't work due... http://fb.me/AuEQIWO9",,,,"216169774785380352",https://twitter.com/bpHopeMag/status/216169774785380352
bipolar voice,bipolarvoice,2012-04-08 21:55,1,0,"# 10FactsAboutMe I have been diagnosed with bipolar affective disorder (aka manic depression). I'm still me though. # bipolardisorder",,,# #,"189003442260410370",https://twitter.com/bipolarvoice/status/189003442260410370
Emily †,ddlovatoIsAHero,2012-03-08 10:33,1,0,"I have been diagnosed with major depression, bipolar, and anorexia <\3",,,,"177597991430012929",https://twitter.com/ddlovatoIsAHero/status/177597991430012929
IAmA,redditIAmA,2010-05-27 20:45,0,0,"[By Request] I have been diagnosed with bipolar disorder, and successfully treated. http://bit.ly/alGfY0",,,,"14835317719",https://twitter.com/redditIAmA/status/14835317719
Bruce Smith,bruced1959,2010-05-12 04:51,0,0,"Hi I have been diagnosed with bipolar disorder. I was put on alot of differnt medications back in 2003. Everyone is different what may",,,,"13811341387",https://twitter.com/bruced1959/status/13811341387
eddiethomas,eddiethomas,2010-05-06 07:38,0,0,"I didn't tell you, I have been diagnosed with Seasonal Bipolar - a posh term for Seasonal Affective Disorder!",,,,"13457285063",https://twitter.com/eddiethomas/status/13457285063
Steve Austin,steveaustin16,2010-04-16 19:29,0,0,"What type of therapy works well for bipolar disorder? | District 7: I have been diagnosed with bipolar disorder, a... http://bit.ly/d7TROg",,,,"12279873214",https://twitter.com/steveaustin16/status/12279873214
David Oliver,bipolarcentral,2010-04-13 01:21,0,0,"New Comment: Dave, I have been diagnosed with Bipolar II disorder with severe depression. Much of your advice soun... http://bit.ly/clxHX1",,,,"12059294490",https://twitter.com/bipolarcentral/status/12059294490
Bipolar Love,bpluv,2010-02-26 15:24,0,0,"My adhd and bipolar disorder - Psych Central Answers: I am 19 years old and i have been diagnosed with adhd ... http://tinyurl.com/y8ecvfs",,,,"9669505823",https://twitter.com/bpluv/status/9669505823
Grizzly Loc,IAMGrizzlyLoc,2010-01-10 08:04,0,0,"OMGDKFACTS: I have been diagnosed with Social Anxiety Disorder & "unofficially" am BiPolar. # omgdkfacts",,,#,"7575757116",https://twitter.com/IAMGrizzlyLoc/status/7575757116
a real bitch !,KrazyK189,2010-01-06 22:18,0,0,"@TheCalipsShow lol I can be emotional tho! I have been diagnosed with being bipolar so I have an excuse!",,@TheCalipsShow,,"7443588760",https://twitter.com/KrazyK189/status/7443588760
Emmalene,Emmalene,2009-12-15 00:11,0,0,"Q:What have you been diagnosed with in t... A:I have been diagnosed as bipolar, diss... http://formspring.me/Emmalene/q/863591 # formspringme",,,#,"6667219910",https://twitter.com/Emmalene/status/6667219910
Antwain Jackson,AntwainJackson,2009-12-05 01:42,0,0,"I have been diagnosed with a new disease! "Church Planters Bipolar Disorder!" ~Being excited & depressed all at the same time! Hahaha!",,,,"6345449243",https://twitter.com/AntwainJackson/status/6345449243
Golfing Tips for Beg,golfswingt,2009-12-04 03:31,0,0,"New blog post: I Have Been Recently Diagnosed With Bipolar Disorder. Does Anyone Have Any Tips For How To Cope? http://bit.ly/5cstyY",,,,"6314136560",https://twitter.com/golfswingt/status/6314136560
jamie thomson,thomson500,2009-11-21 20:45,0,0,"i have been diagnosed with bipolar! what a fuss THAT was! i am now better, thanks to great docs and handy meds",,,,"5918622471",https://twitter.com/thomson500/status/5918622471
David Oliver,bipolarcentral,2009-11-12 06:41,0,0,"BipolarCentral.com - I have been diagnosed with bipolar and my doctor referred me to a psychiatrist who put me on ... http://bit.ly/3c0a14",,,,"5633342010",https://twitter.com/bipolarcentral/status/5633342010
john  m,john99985,2009-10-16 21:29,0,0,"FWD/Forward » Ill: I have been diagnosed, at various times, with clinical depression, bipolar type I disorder, b.. http://bit.ly/1a3e2T",,,,"4916829105",https://twitter.com/john99985/status/4916829105
C:\users\cliffordhenson\me.wav,cliffordhenson,2009-09-13 10:46,0,0,"RT @ brittnicarter: My name is Brittni Carter. I have been diagnosed with severe bipolar disorder by @ myfabolouslife. << AND @ cliffordhenson",,@ @ @,,"3948162256",https://twitter.com/cliffordhenson/status/3948162256
Women with ADHD,womenwithadhd,2009-09-04 05:23,0,0,"Women with ADHD: ADHD and Bipolar: I have been diagnosed with bipolar I and ADHD .. http://bit.ly/1r4PwH # adhd # women",,,# #,"3743509780",https://twitter.com/womenwithadhd/status/3743509780
cardonations,ADHDTreatment,2009-08-16 03:42,0,0,"I Have Been Diagnosed With Bipolar Disease & Was Wondering If Anyone Can Give Me Some Hints Of What To? http://bit.ly/bsmCg",,,,"3333459810",https://twitter.com/ADHDTreatment/status/3333459810
marvin,thyatirian,2009-07-06 00:59,0,1,"@ NAMICommunicate I have been diagnosed with Bipolar/schizoeffective disorder back in 1990 because of my traumatic upbringing",,@,,"2484915638",https://twitter.com/thyatirian/status/2484915638