username,user_handle,date,retweets,favorites,text,geological_location,mentions,hashtags,tweet_id,permalink
matthew,glxyjoon,2018-09-25 00:58,3,73,"my name is matthew i’m a transgender guy who has been diagnosed with clinical depression, anxiety disorder, and eating disorders... i’m currently in the process of my medical transition to female to male to become who i’ve always known i was # SpeakYourself",,,#,"1044284998449225729",https://twitter.com/glxyjoon/status/1044284998449225729
Epistrephes Blakos,Jesufex,2018-09-17 05:58,6,165,"I was diagnosed with an anxiety disorder + minor depression in late 2016—it was brought about largely by pornography. It’s been a long road, but recently I’ve seen signs of permanent recovery: joy, peace, genuine laughter. I can’t adequately say how merciful He is—Deo gratias! pic.twitter.com/4PvlXGVlxZ",,,,"1041461242978861057",https://twitter.com/Jesufex/status/1041461242978861057
Pixelade,Pixelade,2018-09-03 10:28,1,92,"I really hope you aren't trying to accuse me anything. I've been professionally diagnosed with Bipolar disorder and have been taking medication for chronic depression since I was 16 years old. https://twitter.com/hippiesimmer/status/1036443063470546944 …",,,,"1036455772677447686",https://twitter.com/Pixelade/status/1036455772677447686
CornerOfCrazy&Sane,CornerCrazySane,2018-08-28 07:29,7,20,"Anxiety & Panic Disorder √ Depression √ Obsessive-Compulsive Disorder √ I've been diagnosed with all of the above. I've been forced to hide my feelings, my "weaknesses"; to always be the strong one. Please, please don't let others tell you how to feel.",,,,"1034236536831795200",https://twitter.com/CornerCrazySane/status/1034236536831795200
Vadim Dovganyuk,SnowCalmth,2018-07-23 18:49,13,73,"I've been diagnosed with: Classic autism, expressive aphasia, atypical depression, chronic insomnia, PTSD, and selective mutism. Several disorders, yet, I still thrive. A disorder is part of you, but it doesn't have to be a life sentence. # MentalHealthhttps://twitter.com/SnowCalmth/status/936921476397068289 …",,,#,"1021361759142236161",https://twitter.com/SnowCalmth/status/1021361759142236161
Stoned Eq,StonedEventer,2018-06-14 02:25,3,26,"I’m Ashton, Diagnosed with sever depression, sever anxiety, panic disorder and bipolar tendencies. I’ve been clean from SH since December and have been on medications since July 2017. Getting help actually helps My dms are always open for those in need. # EndTheStigmahttps://twitter.com/bilbowompins/status/1006773945318756353 …",,,#,"1006980827069153280",https://twitter.com/StonedEventer/status/1006980827069153280
Saralee Burciaga,BurciagaSaralee,2018-06-13 07:09,22,27,"I've been clinically diagnosed with depression ptsd and an anxiety disorder. I qualify for a service dog, but can't afford a trainer. Please help, anything will help! https://www.gofundme.com/aha5db-service-dog-training&rcid=r01-152884734701-6df567884eee448b&pc=ot_co_campmgmt_m …",,,,"1006689917139906560",https://twitter.com/BurciagaSaralee/status/1006689917139906560
Terri Powers,TerriPowers01,2018-06-11 10:16,0,48,"Hi, I’m Terri. I’ve been diagnosed with general anxiety disorder, panic disorder and depression. After years of “working through it” I finally found Sertraline works the best for me. # EndtheStigmahttps://twitter.com/miagrace97/status/1006006934737219585 …",,,#,"1006012167194365953",https://twitter.com/TerriPowers01/status/1006012167194365953
Katie,PommeFatale,2018-06-09 04:08,0,45,"Hi internet! I’ve been diagnosed with an anxiety disorder, depression and anorexia. I take so many drugs I probably rattle, but they help me stick around so I’ll keep doing it. I don’t always like being here, but I think I’d like being anywhere else even less. # mentalhealthhttps://twitter.com/emmaladyrose/status/1005062158428921856 …",,,#,"1005194945043554304",https://twitter.com/PommeFatale/status/1005194945043554304
Law&Mariska,svu_love,2018-06-09 01:01,4,26,"I’ve been diagnosed with Bipolar depression, generalized anxiety disorder, & PTSD. If it weren’t for my therapist and psychiatrist I don’t think I would still be here today. My experiences have led me to peruse a career in psychology. I want to use # mystory to help others.",,,#,"1005147880187981825",https://twitter.com/svu_love/status/1005147880187981825
✨benevolent sentient gold✨,blowticious,2018-05-31 02:17,6,43,"I’m literally in the middle of a depressive episode. I’ve been diagnosed with severe chronic depression, PTSD, and an anxiety disorder. I don’t go on hateful tirades. Having a MH diagnosis doesn’t excuse you from being a decent person. Fuck her, Jimmy. https://twitter.com/jimmykimmel/status/1001891765757001730 …",,,,"1001905571996557312",https://twitter.com/blowticious/status/1001905571996557312
Sandford Police,Sandford_Police,2018-05-14 15:58,4,98,"It’s # mentalhealthawarenessweek2018 My regular followers might know that I have my moments. I’ve just been diagnosed with double depression. That’s dysthymia (persistent low level mood disorder) coupled with major depression. It’s hard to keep going. I’m glad I’m getting help.",,,#,"995951394711654400",https://twitter.com/Sandford_Police/status/995951394711654400
morgan,Morganoylle,2018-05-11 05:46,2,20,"I get this, but you can feel anxious without having an anxiety disorder or feel depressed without having depression. I've been to therapy for feelings of depression, but I don't have a diagnosis. It's okay to need help even if you haven't been diagnosed with a mental illness. https://twitter.com/tiedyecolleenn/status/994660525555552258 …",,,,"994710332709982213",https://twitter.com/Morganoylle/status/994710332709982213
Hawke,kira_hawke,2018-05-03 22:49,22,116,"This isn’t an easy thing to post.. and that just proves how badly we need to break the stigma. SO. I’ve been clinically diagnosed with: -Major Depression -Borderline Personality Disorder -Severe Alcohol Addiction We don’t need to be ashamed. # MentalHealthAwarenessMonth",,,#,"992068620929794049",https://twitter.com/kira_hawke/status/992068620929794049
SAM.,Samsamayy,2018-04-18 05:55,7,35,"I’ve been diagnosed with manic bipolar disorder & Manic depression and coming from generation of immigrants it’s hard to get them to understand what mental health is because it doesn’t exist in our culture which is very sad because this leads to death for not being UNDERSTOOD.",,,,"986377575210672128",https://twitter.com/Samsamayy/status/986377575210672128
Nica del Rosario,nicadelrosario,2018-04-13 12:47,22,49,"Having been diagnosed with generalized anxiety disorder 2 years ago, I've always though na kulang ang stories and interpretations of mental health sa arts dito. I wrote about what it was like to suffer through anxiety and depression.",,,,"984669301801021440",https://twitter.com/nicadelrosario/status/984669301801021440
𝚙𝚘𝚛𝚐𝚜 𝚊𝚛𝚎 𝚔𝚒𝚗𝚍𝚊 𝚝𝚑𝚒𝚌𝚌,jackassidi,2018-04-04 04:44,16,77,"I didn’t wanna post to this at first bc I haven’t been doing that great lately but I’ve struggled with depression, anxiety, self harm and substance abuse since middle school and I recently got diagnosed with borderline personality disorder. I’ll be ok though, I’m # BraveNotBrokenpic.twitter.com/Hl8oJ4xr2E",,,#,"981286385268264961",https://twitter.com/jackassidi/status/981286385268264961
Feminist Lady,feministlady,2018-02-28 09:48,3,23,"Y’all, I’m mentally ill. I’ve been diagnosed with panic disorder and occasional bouts of depression. Without medication, I have several panic attacks a day. I SHOULD NOT have a gun as I could very easily hurt myself. But fuck y’all if you think you’re putting me on a registry.",,,,"968679263993057281",https://twitter.com/feministlady/status/968679263993057281
Rebecca Ritchey,eatingb00ks,2017-06-02 04:24,2,27,"22. I was diagnosed with an anxiety disorder when I was 18. I've been dealing with panic attacks and depression for nearly 2 decades pic.twitter.com/sxIoLEnmOf",,,,"870390657432649729",https://twitter.com/eatingb00ks/status/870390657432649729
𝒜𝓈𝓎𝓇𝒾𝒶 🌻,asyriaaa,2015-11-29 03:00,8,49,"# MentalHealthPosi I've been diagnosed with depression, severe anxiety, & an eating disorder... still myself! pic.twitter.com/C5drjQDYIC",,,#,"670693852257226752",https://twitter.com/asyriaaa/status/670693852257226752
lauren 🏳️‍🌈,x_laur_bean_x,2018-10-20 06:11,0,0,"I've been ill for a while but I've been to afraid to even go to my doctor. I've been diagnosed with anxiety and depression for nearly two years. Sometimes I think it's bipolar disorder instead but sometimes I think I'm just paranoid",,,,"1053423485521985536",https://twitter.com/x_laur_bean_x/status/1053423485521985536
ThankYouBTS,bangtanwi,2018-10-19 02:23,0,1,"# SpeakYourself: this year, I've been diagnosed with anxiety disorder, depression and eating disorder. I thought I had recovered, but I didn't, I have just been hidding my weak points under masks, "fake it until you make it" was my motto @ BTS_twt",,@,#,"1053003577831120897",https://twitter.com/bangtanwi/status/1053003577831120897
🌌RyanTehFox🌌,TechnoRacinqFox,2018-10-17 07:47,0,1,"Apparently I have Major Depressive disorder. Watched a video about different types of depression. All the symptoms apply to me except 1 or 2. I've already been diagnosed with depression over a year and a half ago.",,,,"1052360502578487297",https://twitter.com/TechnoRacinqFox/status/1052360502578487297
Gavgetsfit,Gavgetsfit,2018-10-17 04:00,0,3,"I talk about how I was diagnosed with depression and how I've been on anxiety meds for a few years but I never really talk about another part my diagnosis. General Anxiety Disorder. Its a… https://www.instagram.com/p/BpAh-5EhA18/?utm_source=ig_twitter_share&igshid=1ej3uvkgqbz75 …",,,,"1052303287351959554",https://twitter.com/Gavgetsfit/status/1052303287351959554
L’Oreal Miles ♥️,LorealMiles,2018-10-14 20:42,0,1,"I’m so glad to meet you! You my kinda people man I swear! I was diagnosed with.. depression, panic disorder and borderline personality disorder. So I’ve been through MANY storms but I’m about to show you a picture..",,,,"1051468379222093824",https://twitter.com/LorealMiles/status/1051468379222093824
BabyBoo,BabyRexxha,2018-10-13 16:10,8,8,"Worst. Crying. Trauma. Paranoid. And now I've been diagnosed with Anxiety disorder and minor depression https://twitter.com/twt_cinta/status/1050610720922976258 …",,,,"1051037485612978176",https://twitter.com/BabyRexxha/status/1051037485612978176
Brianna Holbrook,label_me_art,2018-10-12 03:48,0,0,"Would be willing to share my GoFundMe 4 my recent hospital stay? The Bills keep growing and growing. I've been recently diagnosed with Severe major depression disorder&persistent depression disorder. I'm getting treatment but I didn't know that it would be this much of a burden",,,,"1050488209472393217",https://twitter.com/label_me_art/status/1050488209472393217
acie,labyumajora,2018-10-11 21:18,0,10,"prob too late for # worldmentalhealthday but i’ve been struggling with depression for the most part of my life and only recently have i been diagnosed with bipolar ii disorder which is mainly comprised of long depressive periods with bouts of hypomania.",,,#,"1050390154332930048",https://twitter.com/labyumajora/status/1050390154332930048
Danielle,danielleslike,2018-10-11 12:27,0,1,"I also have been diagnosed with major depression disorder. I’m currently going through a funk right now. But it’s not like it has been in the past. I’ve never acted on it, but I’ve been suicidal before.",,,,"1050256497630941184",https://twitter.com/danielleslike/status/1050256497630941184
Joey!,joeywants2,2018-10-11 08:53,0,1,"U can always talk to me if u want, I was diagnosed with bipolar disorder about a year ago, and was told I have major depression and a severe anxiety disorder as well. The new med I'm on work miracles! So I've been and still am going thru it. Stay strong my friend!",,,,"1050202745314177024",https://twitter.com/joeywants2/status/1050202745314177024
Libraryzombie 🇨🇦🥄,libraryzombie,2018-10-11 07:14,0,1,"And eventually, I was diagnosed with first depression, then anxiety, then PTSD on top of that. I also have an obsessive compulsive binge eating disorder, chronic nightmares, chronic insomnia, etc. I've been in and out of therapy/counseling throughout the years. (more)",,,,"1050177683185946625",https://twitter.com/libraryzombie/status/1050177683185946625
SJ👻,SaraJaneHere,2018-10-11 06:13,0,19,"Hello y’all I’m SJ and I’ve been diagnosed with PTSD, panic disorder, anxiety, and depression. It’s been one hell of a journey and it’s not done yet. Even on the hard days I try to remind myself there’s always a light at the end of the tunnel # MentalHealthDay",,,#,"1050162389511884801",https://twitter.com/SaraJaneHere/status/1050162389511884801
Tayy,TayZaryanova,2018-10-11 05:45,0,1,"First off, I’ve been diagnosed with depression since I was 10 and a severe mood disorder when I was 16. On top of that I developed PTSD from abuse and social anxiety that still have a huge impact on my life. All these things I’ve accepted as who I am but they don’t define me!",,,,"1050155508747911171",https://twitter.com/TayZaryanova/status/1050155508747911171
Cecil Price Walden,pricewalden,2018-10-11 04:53,0,24,"Oh, well I guess # WorldMentaHealthDay is as good as any to share that I’ve been newly diagnosed with borderline personality disorder. It is very scary after having had certain words (bipolar, anxiety, depression) for years to add a whole new word to the mix.",,,#,"1050142344664817664",https://twitter.com/pricewalden/status/1050142344664817664
kathydral,iwiIIstayaIive,2018-10-11 04:16,0,15,"some of you may know that i've been diagnosed with depression, anxiety, and most recently borderline personality disorder. it's been a rollercoaster to say in the least, and yet i keep convincing myself that i don't need help, or that no one can help me, and that's not true (3/7)",,,,"1050132869513920529",https://twitter.com/iwiIIstayaIive/status/1050132869513920529
Piper Zaughnbie 🧟‍♂️👻🎃,pipervaughn,2018-10-11 03:50,0,10,"It’s World Mental Health Day, but for me mental heath is an everyday struggle. I’ve been diagnosed with both an anxiety disorder and clinical depression, and this has been something I’ve struggled with since my early teens. pic.twitter.com/ACf5HkZRSK",,,,"1050126496084443137",https://twitter.com/pipervaughn/status/1050126496084443137
Cass 💀,CassMoneyLive,2018-10-11 03:14,2,9,"On this # WorldMentalHealthDay I would like to acknowledge the struggle that happens after you get help. I'm diagnosed with clinical depression and a severe anxiety disorder, I've been on meds and in therapy off and on for the past 3 years. It gets easier, but it is never EASY.",,,#,"1050117311783305217",https://twitter.com/CassMoneyLive/status/1050117311783305217
amy,ames302,2018-10-10 22:48,0,4,"Happy # WorldMentalHealthDay Ive suffered mental illness most of my life I’ve been through depression and anxiety only this I was diagnosed with emotionally unstable personality disorder, with dependent and avoidant traits, I used to be embarrassed but not anymore # breakthestigmapic.twitter.com/AnVUrpkmkg",,,# #,"1050050359136272385",https://twitter.com/ames302/status/1050050359136272385
Sarah Rais,Sarah_Rais,2018-10-10 22:04,0,2,"I've been struggling with depression since i was 15 and got diagnosed few years ago with generalized anxiety disorder.. i learned how to deal with the mental illness but sometimes i lose control and it's just a living hell.. it's important to speak about it though # WMHD18",,,#,"1050039384286920704",https://twitter.com/Sarah_Rais/status/1050039384286920704
kristina,khyatt2876,2018-10-14 06:36,0,1,"Nice I’m the same way I’ve been diagnosed with multiple mental disorders adhd bipolar anxiety depression oppositional defiant disorder (odd yes I’ve literally been labeled odd by drs) n pervasive developmental disorder n severe insomnia the only thing that helps is bud",,,,"1051255429144240128",https://twitter.com/khyatt2876/status/1051255429144240128
💚cici♥️ listen 2 oingo boingo,harpsealcircus,2018-10-12 06:13,0,2,"i've already been diagnosed with major depression and anxiety. that's been a diagnosis since i was about 13, but started when i was around 8. also, soon, i'm going to get tested for probable Schizotypal Personality Disorder, which isn't very common and not talked about often",,,,"1050524811519242241",https://twitter.com/harpsealcircus/status/1050524811519242241
🎃spooky garbage kid👻 @ depression hiatus,bakabarks,2018-10-11 10:00,0,2,"Here’s a late # MentalHealthAwarenessDay post. I’ve been diagnosed with depression and anxiety since the age of five, and since then I’ve been diagnosed with PTSD and disassociation disorder. Do anything you can do to get your mental health in check",,,#,"1050219642608865281",https://twitter.com/bakabarks/status/1050219642608865281
rose,restavivorose,2018-10-11 06:09,0,7,"i’ve been diagnosed with depression & Generalized Anxiety Disorder. i promise you that your pain is valid, that you are not annoying or bothering people by reaching out to someone. don’t internalize it. you’re not alone, you’re needed & you’re so loved. # WorldMentalHealthDay",,,#,"1050161363711090689",https://twitter.com/restavivorose/status/1050161363711090689
hannah🌙,keepbrcathin,2018-10-11 04:58,0,1,"confession/fun fact #4: i’ve been diagnosed with Generalized Anxiety Disorder, Depression, Panic Disorder, & ADHD. and although not diagnosed by a doctor my mom who is a nurse thinks i have ARFID",,,#4,"1050143585692213248",https://twitter.com/keepbrcathin/status/1050143585692213248
alex elizaBOOeth!,mybigmood,2018-10-11 02:49,0,8,"On this # WorldMentalHealthDay, I would like to share a bit of my story. I've been diagnosed as several things by several people; I've been diagnosed with OCD, Paranoid Personality Disorder, PTSD, Severe Depression, GAD, etc. It feels like it doesn't get better sometimes -",,,#,"1050111003214704640",https://twitter.com/mybigmood/status/1050111003214704640
WölfinnenPack,Pajorhansdottir,2018-10-11 01:26,0,0,"Years ago I’ve been diagnosed with GAD ( Generalized Anxiety Disorder ) and Depression and I still suffer of them. # WorldMentalHealthAwarenessDay",,,#,"1050090330622763008",https://twitter.com/Pajorhansdottir/status/1050090330622763008
a s h l e y 😻,Destahti,2018-10-10 23:02,0,3,"Today is # WorldMentalHealthDay. I've been diagnosed with insomnia, anxiety disorder, depression, and Borderline Personality Disorder. I won't let then stop me from living my best life. Being open and honest and talking about these things have helped me so much. I know it's hard,",,,#,"1050053879906226176",https://twitter.com/Destahti/status/1050053879906226176
🦇⚰️paranormal jackstivity🎃💀,diinferi_,2018-10-10 22:00,0,15,"I've been diagnosed with generalized anxiety disorder and depression, and struggled with both for decades before that diagnosis. my life improved exponentially the day I finally sought help. I'm a firm believer in the power of therapy # WorldMentalHealthDay2018",,,#,"1050038463611858946",https://twitter.com/diinferi_/status/1050038463611858946
Amduscia_,AmdusciaTwitch,2018-10-10 19:38,0,6,"It's # WorldMentalHealthDay. This is kinda of a big one for me and one of the reasons my streams are kind of on and off again at this moment. Last year I've been diagnosed with borderline personality disorder, depression, anxiety and PTSS (and those were just the big ones).",,,#,"1050002540773949442",https://twitter.com/AmdusciaTwitch/status/1050002540773949442
Siyanda A. Mabija,steamsiya16,2018-10-10 18:21,0,2,"THREAD: 2 years ago I was clinically diagnosed with major depression, anxiety, insomnia and an eating disorder. Fast forward to now I’ve been fortunate enough to go to clinics and receive help from the best psychiatrists and psychologists # WorldMentalHealthAwarenessDay",,,#,"1049983208379551745",https://twitter.com/steamsiya16/status/1049983208379551745
Reem Kattan,ReemHKattan,2018-10-10 16:30,0,1,"For # WorldMentalHealthDay: I've been diagnosed with OCD, ADHD, Depression, & Anxiety Disorder. But these do not define me and are not labels. I am stronger than I look and determined to live life to the fullest despite all this. It's an uphill, everyday battle. You're not alone.",,,#,"1049955391923281920",https://twitter.com/ReemHKattan/status/1049955391923281920
Nkwenkwezi Nyilika,NkwenkweziNyil1,2018-10-10 16:15,0,0,"It's been 4 years this month Eversince I've been diagnosed with depression and anxiety disorder and this day just hits home and I thank the lord for still keeping me alive till this day. We are still going strong # WorldMentalHealthDaypic.twitter.com/PVhgCJOYsD",,,#,"1049951637593313282",https://twitter.com/NkwenkweziNyil1/status/1049951637593313282
Lulu✨🔜 @MCM,lulujlunnon,2018-10-10 14:35,0,0,"I have suffered with Depression and General Anxiety Disorder for the majority of my life, I was diagnosed 4 years ago and I've been on medication since. It's really difficult because it feels like you're fighting another person inside your head and can affect you physically too. https://twitter.com/WMHDay/status/1049894455698968579 …",,,,"1049926284904714240",https://twitter.com/lulujlunnon/status/1049926284904714240
Fern 🌿🍄🍃,capriendeer,2018-10-10 12:38,1,8,"Oh yeah today is mental health day so I just want to passively mention that I’ve been diagnosed with depression, PTSD, and a personality disorder (I’d rather not specify which one) so I know it’s hard and I’m proud of all of you for doing what you can",,,,"1049896931852513282",https://twitter.com/capriendeer/status/1049896931852513282
Soapbox Jury #GTTO,soapboxjury,2018-09-21 15:41,2,14,"I now realise that the way I felt even as a very small child was not normal because I've now been diagnosed with depression and anxiety disorder. I've disliked myself all my life: it still feels like I'm just being pathetic but I know, logically, it's an illness. # WeAllHaveAStory",,,#,"1043057739637899275",https://twitter.com/soapboxjury/status/1043057739637899275
b♡,briherbert07,2018-06-12 11:06,0,25,"I’m Bri and i was diagnosed with depression and anxiety disorder. I’ve been taking medication for it for 2 years now. I’m in a muchhhhh better place than I was 2 years ago. No one should have to go through it alone, it’s okay not to be okay!! # EndTheStigma https://twitter.com/skylarpirwitz/status/1006283236010536962 …",,,#,"1006387341043220481",https://twitter.com/briherbert07/status/1006387341043220481
Eleanor,RealEleanorR,2018-04-16 04:03,2,11,"The last couple of days have shown me that even after what I've been through and being diagnosed with anxiety and depression disorder, the people who actually put in effort can genuinely make me happy, and that is something that during these dark times i am very thankful for x",,,,"985624659847778304",https://twitter.com/RealEleanorR/status/985624659847778304
Sarah,Sarah_ldaly,2018-02-01 02:05,0,25,"# BellLetsTaIk I've been diagnosed with CPTSD, depression, anxiety, binge eating disorder and bulimia and I work hard every single day to grow and to learn more and more. Every day holds new opportunities and chances but bad days will still happen and that's okay",,,#,"958778232668647424",https://twitter.com/Sarah_ldaly/status/958778232668647424
greta in a sweata,bunnyt33th,2018-10-11 10:56,0,0,"it’s still # WorldMentaHealthDay and I just want to say, earlier this year I was diagnosed with a longterm form of depression called persistent depressive disorder, which i’ve been struggling with since 7th grade and I wouldn’t be here if it weren’t for some very special people.",,,#,"1050233545749344256",https://twitter.com/bunnyt33th/status/1050233545749344256
🍒,sikhmixgirl,2018-09-28 20:33,9,37,"I’ve been in the same situation when I was 12 . parents should think twice before making any decisions don’t just think about themselves. i have been diagnosed with minor bipolar disorder which related to depression because of the same situation until now and it’s not good .",,,,"1045667914374774784",https://twitter.com/sikhmixgirl/status/1045667914374774784
Chamo,killedslob,2018-08-28 00:36,1,11,"Bad news: I’ve been diagnosed with panic disorder, little bit of depression, dissociation disorder, and depersonalization disorder. Good news: I’m excused from Jury duty.",,,,"1034132469597921281",https://twitter.com/killedslob/status/1034132469597921281
𝓈𝓅𝑜𝑜𝓀𝓎 𝓅𝓁𝒶𝓃𝓉 𝓂𝑜𝓂,selflovingsoul,2018-06-19 14:37,0,7,"I’m Nikki & I’ve been diagnosed with anxiety, depression, & insomnia. I haven’t self-harmed in almost 6 years & I’ve been eating disorder free for 8. Now that I’m on Lexapro, I am thriving Reach out. Get help. You don’t need to suffer. # MentalHealthMatters https://twitter.com/witchywhimsy/status/1008915963046178816 …",,,#,"1008977111703580672",https://twitter.com/selflovingsoul/status/1008977111703580672
em payne,empayne0809,2018-06-16 23:08,0,11,"Hi, I’m Emily. I’ve been diagnosed with depression, bipolar disorder, anxiety, and panic disorder. I’ve been on anti depressants since I was 12. Life is not easy, and I struggle every day, but I always come out the other side stronger. # EndTheStigmahttps://twitter.com/alainaporth/status/1007754519508389889 …",,,#,"1008018517994557441",https://twitter.com/empayne0809/status/1008018517994557441
Seeka Woodworth,seekamadyson,2018-06-14 02:13,0,39,"I’m Seeka, I’m diagnosed with generalized anxiety disorder and depression & recently started taking meds daily for both!! Currently the happiest that I’ve been in a long time, and have grown immensely spiritually and emotionally from my experience. # ENDTHESTIGMAhttps://twitter.com/glolivv/status/1006673695706935298 …",,,#,"1006977769480302592",https://twitter.com/seekamadyson/status/1006977769480302592
vvitch,misshailsatan,2018-06-13 18:03,1,15,"My name is Rachel and I've been diagnosed with anxiety, depression, bpd, and schizoaffective bipolar type disorder, I take abilify for psychosis and buspirone for anxiety. # EndTheStigmahttps://twitter.com/PattiMurin/status/1005107189277708290 …",,,#,"1006854678439702529",https://twitter.com/misshailsatan/status/1006854678439702529
katherine,fuzzmeisteroooo,2018-06-11 06:43,0,26,"I’m Fuzzy. Senior year of high school I was diagnosed with ADHD/generalized anxiety disorder/depression. I now take daily meds and see a therapist; I’m the greatest me I’ve ever been. Hard days are still plentiful, but now I know how to find the light within them. # EndTheStigmahttps://twitter.com/maggi6e/status/1005873028645965825 …",,,#,"1005958565297782785",https://twitter.com/fuzzmeisteroooo/status/1005958565297782785
♡ spooky jenn ♡,jennrlancaster,2018-06-09 21:43,1,11,"My name is Jenn. I was diagnosed with depression and anxiety/panic disorder in 8th grade. I’ve been on medication since my junior year of high school and as much as I would like to go off of it, it scares me to imagine what it would feel like without it # EndTheStigma",,,#,"1005460397359497216",https://twitter.com/jennrlancaster/status/1005460397359497216
Anita Byrne,anitambyrne,2018-05-15 18:51,1,12,"Years before both my pregnancies I had been diagnosed with general anxiety disorder and I went through some very bad patches in my life where I've had clinical depression. I've never been suicidal but I've been v v ill because of it. 7/",,,,"996357320178388993",https://twitter.com/anitambyrne/status/996357320178388993
Batrick Gem 🦇🌈,NightinGem,2018-05-04 03:07,0,17,"Hi! I’m Patrick Gem, and I’ve been diagnosed with: Bipolar Disorder Generalized Anxiety Disorder Depression ADHD PTSD I’m generally a cheery and social person, and unless you know me well I don’t seem like I have them. But they can happen to anyone. # MentalHealthAwarenessMonth",,,#,"992133447983419392",https://twitter.com/NightinGem/status/992133447983419392
Spooky Manda 🎃,amanduhh_pls,2018-04-09 08:02,2,5,"Explain how a mental disorder is a disease, because I’ve been diagnosed with depression since middle school and have been on Effexor since. This isn’t an opinion, it’s a disorder, HIV is a disease. https://twitter.com/justinp_irl/status/983146329080827904 …",,,,"983148061038915584",https://twitter.com/amanduhh_pls/status/983148061038915584
#WeakMenFearStrongWomen 🌊 Tanja,TanjaMcConnor,2018-03-03 22:19,1,14,"You are not alone! # MyPetIsMyTherapist because I've been going through depression after son was diagnosed with a behavioral disorder and my mom passed away after a short, horrific illness pic.twitter.com/Amz5ADaCnO",,,#,"969955423376699393",https://twitter.com/TanjaMcConnor/status/969955423376699393
🕷 🎃 SPOOPY USCHI 🎃🕷,SilentUschi,2018-02-08 05:58,2,20,"I’ve been diagnosed with anxiety, panic disorder & depression. I’ve gone to therapy, am on medications. This doesn’t go away, it’s not all in my head and it should be taken seriously.",,,,"961373527285882881",https://twitter.com/SilentUschi/status/961373527285882881
The good one,Cassirole98,2017-09-20 21:24,4,7,"So far I've been diagnosed with Major Clinical Depression, chronic anxiety and Borderline Personality Disorder traits.",,,,"910509928804179969",https://twitter.com/Cassirole98/status/910509928804179969
Aisling,aislingbrock,2017-04-24 02:06,1,9,"A1. I've been diagnosed with Generalized Anxiety Disorder and Atypical Depression and I write about both. # BlogosphereChat",,,#,"856222656693227520",https://twitter.com/aislingbrock/status/856222656693227520
AKI @ 20TH BDAY ?!,ohdeeraki,2018-10-08 19:43,0,15,"and for people who haven't experienced depression to understand how we feel. because ever since i've been diagnosed with major depressive disorder, people have been asking me "what's it like being depressed?" +",,,,"1049279120587153408",https://twitter.com/ohdeeraki/status/1049279120587153408
𝚑𝚊𝚗𝚗𝚊𝚑🍂,frecklesnlove,2018-08-31 04:47,0,15,"So I have been diagnosed with severe depression and generalized anxiety disorder. I haven’t been on medication in almost 5 years. I’ve been think about seeking treatment but I don’t have health insurance. Heard a lot about using CBD oil. Have any of you tried this? Thoughts?",,,,"1035282962600943616",https://twitter.com/frecklesnlove/status/1035282962600943616
Bʀɪᴛᴛᴀɴʏ Bᴜᴄᴋʟᴀɴᴅ 🎃,writerbrittanyb,2018-07-17 09:23,1,6,"# MyFirstMentalIllnessExperience I was only recently diagnosed with major depression and anxiety disorder in 2015, but I've been struggling with it since I've been 11. I just remember waking up one morning and asking myself what my life was even worth and wondering why I was even",,,#,"1019044916348047362",https://twitter.com/writerbrittanyb/status/1019044916348047362
ادريني,adrndm,2018-07-08 15:36,9,15,"I've been diagnosed with psychotic depression as major depressive disorder with anxiety features, been in and out of psychiatric wards, currently still in treatment with medication. So yes, I am. Not everyone is the same, but everyone cries for help, it's just a matter of how.",,,,"1015877389350342662",https://twitter.com/adrndm/status/1015877389350342662
Momma Wolf 🐺🔮🎃🍁🍂,breathing_tree,2018-06-20 23:30,1,10,"I'm Lauren. I was just diagnosed with bipolar disorder this year, but I've been struggling with severe AD/HD, depression, & anxiety since I was in grade school. I'm still looking for the "right" way to cope, but I've got lots to live & get healthy for! # EndTheStigma https://twitter.com/Alyssaaaa7/status/1009225480451457025 …",,,#,"1009473515211198465",https://twitter.com/breathing_tree/status/1009473515211198465
robonarples$ 🎃,katamariball,2018-06-19 21:13,0,11,"my name is jijo and i’ve been diagnosed with severe depression, PTSD, borderline bipolar and an eating disorder,medicated for the first 3. i used to sleep 18 hours a day. im vastly improving since last year. everyone says so but it really does get better,reach out,fight for help. https://twitter.com/pattimurin/status/1005107189277708290 …",,,,"1009076777807958016",https://twitter.com/katamariball/status/1009076777807958016
🧜🏼‍♀️AndrAIaMatrixxx🔱,AndrAIaMatrixxx,2017-12-12 18:01,2,3,"I’ve been diagnosed with; Extreme Anxiety; Clinical Depression; Dissociative Identity Disorder. If you’re a model that needs help I’m ALWAYShere for you # EndTheStigma # MentalHealthAwareness",,,# #,"940536983058862080",https://twitter.com/AndrAIaMatrixxx/status/940536983058862080
ryankeely,ryankeely,2017-12-10 14:19,0,10,"I’ve been diagnosed with borderline personality disorder, clinical depression, anxiety etc. # MentalHealthMatters",,,#,"939756423738564609",https://twitter.com/ryankeely/status/939756423738564609
Mateo🌞,Mateo_R14,2017-10-11 11:30,1,7,"Piggybacking off Cassie to say I understand what it's like to be accused of attention seeking. I've been diagnosed with clinical depression and generalized anxiety disorder. It's VERY REAL. # WorldMentalHealthDay",,,#,"917970584985899008",https://twitter.com/Mateo_R14/status/917970584985899008
Melo,_melobird,2017-08-31 22:05,1,5,"I've been diagnosed with clinical depression an generalize anxiety disorder & nothing will make it worse than refusing to make a change.",,,,"903272509755273216",https://twitter.com/_melobird/status/903272509755273216
Reichele Corona and 105 others,TiredReich,2017-06-05 18:04,1,4,"6. I know some of you may already know this but I've been diagnosed with depression, anxiety, and borderline personality disorder.",,,,"871684042604916736",https://twitter.com/TiredReich/status/871684042604916736
les🐝an,sarah_dude,2017-05-09 03:40,1,9,"Ooooh it's # MentalHealthAwarenessWeek ! Let's see; I've been diagnosed with borderline personality disorder, depression and more.",,,#,"861682364572893185",https://twitter.com/sarah_dude/status/861682364572893185
Liv 🌹,lr_242,2017-04-21 02:40,1,5,"I've been diagnosed with borderline personality disorder and depression. I felt relieved when I got my BPD diagnosis because it (1) # TalkMH",,,#,"855144153814106112",https://twitter.com/lr_242/status/855144153814106112
alexandra 💉,alex_skok14,2017-02-20 23:41,0,13,"with that, I've recently been diagnosed with an high anxiety disorder & clinical depression; so thank you for all those showing",,,,"833718136402739200",https://twitter.com/alex_skok14/status/833718136402739200
Paige Reidt☼,PaigeReidt,2017-01-26 10:03,15,4,"# BellLetsTalk about how it's been four years since I've been diagnosed with seasonal depression disorder",,,#,"824452722950864896",https://twitter.com/PaigeReidt/status/824452722950864896
jess,gulfcoastie,2015-01-29 01:13,1,5,"# BellLetsTaIk I've been diagnosed with clinical depression and bipolar disorder and that does not make me any less of a person.",,,#,"560500987618942976",https://twitter.com/gulfcoastie/status/560500987618942976
Taylor Glenna,Taydoeeee,2014-08-12 07:42,1,3,"I've been diagnosed with depression, ptsd, anxiety disorder, & ocd. Regular people really don't understand how hard it is to live with.",,,,"498993004896870400",https://twitter.com/Taydoeeee/status/498993004896870400
Twining Enterprise,Twining_news,2014-07-30 17:01,0,0,"Warning, an emotional story: "I've been diagnosed with autistic spectrum disorder, depression and anxiety" http://ow.ly/zwRoU",,,,"494422475900719104",https://twitter.com/Twining_news/status/494422475900719104
ACAT,alacostaACAT,2014-07-24 21:45,0,0,""I've been diagnosed with autistic spectrum disorder, depression and anxiety in the space of six months. "I don't... http://fb.me/3moyhdsIl",,,,"492319709367660544",https://twitter.com/alacostaACAT/status/492319709367660544
Daddy King Pin,cxllmedxddy,2013-11-21 00:16,0,1,"Secret 1. I've been diagnosed with major depression, generalized clinical anxiety, bipolar disorder and mild OCD.",,,,"403210326335700994",https://twitter.com/cxllmedxddy/status/403210326335700994
kimwong,kimmwongg,2013-10-16 10:23,0,4,"This is the happiest I've been since before I was diagnosed with severe depression disorder. I've finally over come it.",,,,"390317117435682816",https://twitter.com/kimmwongg/status/390317117435682816
GirlyGirl☯,girl_tweetsss,2013-09-09 11:31,1,6,"# KnowYourAnon I've been diagnosed with depression, bipolar, anxiety, an eating disorder, & panic disorder and I'm still making it.",,,#,"376925721211731968",https://twitter.com/girl_tweetsss/status/376925721211731968
Peegan,PeterErenBeall,2013-06-11 02:19,0,2,"So I've been previously diagnosed with ADD & clinical depression. Now I'm being tested for bipolar disorder. My head is just fuckin awesome.",,,,"344172002225033217",https://twitter.com/PeterErenBeall/status/344172002225033217
GirlyGirl☯,girl_tweetsss,2013-06-08 13:05,0,3,"Here recently I've been diagnosed with anxiety, depression, bulimia, & panic disorder. # confessionnight",,,#,"343247352301240320",https://twitter.com/girl_tweetsss/status/343247352301240320
ex ,mariners_gf,2013-05-15 21:09,0,1,"@ LDRCF I've been dealing with depression for a while but I just got diagnosed with borderline personality disorder, which scares me so much.",,@,,"334671806004867073",https://twitter.com/mariners_gf/status/334671806004867073
Trashcan,aye_puta,2013-03-25 14:42,1,1,"Not even confused I've been diagnosed with Depression, anxiety, OCD, panic disorder, bi polar and insomnia",,,,"316092708831756289",https://twitter.com/aye_puta/status/316092708831756289
ddIfaith,ddIfaith,2012-10-19 06:09,2,2,"I've recently been 'diagnosed' with bipolar disorder, social anxiety disorder & suicidal with major depression. that's why, don't judge me..",,,,"259068824526147584",https://twitter.com/ddIfaith/status/259068824526147584
Pharmacy Reviewer,pharmreviewer,2012-07-19 20:46,0,0,"Hey everyone: Hey everyone, My name is Matt and I've been diagnosed with anxiety disorder and major depression when I http://bit.ly/MxO30U",,,,"225949659217154049",https://twitter.com/pharmreviewer/status/225949659217154049
Stick Nephens,sticknephens,2012-03-09 04:40,1,0,"I've been diagnosed with bipolar disorder and schizophrenia by a doctor. But another doctor said it's just mild depression. I need answers",,,,"177871501016580096",https://twitter.com/sticknephens/status/177871501016580096
Ares3(9),459Aegis,2011-05-29 10:28,0,0,"Depression or Bipolar? Really need help. : Bipolar Disorder Forum: For 2 years or so I've been diagnosed with se... http://bit.ly/iB3lG1",,,,"74678527152238593",https://twitter.com/459Aegis/status/74678527152238593
revoltra,emrevoltra,2011-05-27 16:43,0,0,"adayinthelifeofagirl asked: Hey there. I’ve also been diagnosed with depression and anxiety disorder. I know... http://tumblr.com/xz32pgwpbt",,,,"74048059100766208",https://twitter.com/emrevoltra/status/74048059100766208
Mariya G,Mya_Lately,2011-05-11 02:18,0,0,"I've been diagnosed with Maniac depression disorder",,,,"68032075881660416",https://twitter.com/Mya_Lately/status/68032075881660416
Helen Forrest,HelenRForrest,2011-04-21 13:33,0,0,"# befrank I've suffered from depression since I was a teenage and have been diagnosed with schizo-affective disorder in last four years...",,,#,"60954337236615168",https://twitter.com/HelenRForrest/status/60954337236615168
Jules Young,muddleduck,2011-03-22 15:54,0,0,"@ tempestdevyne I've diagnosed with anxiety disorder, mild OCD, panic attacks and bouts of severe depression, have been dealing with it all",,@,,"50118049738657793",https://twitter.com/muddleduck/status/50118049738657793
Halli. ( HAL-lee ),halli_,2011-03-21 06:19,0,0,"# 100factsaboutme 13.) I've been diagnosed with depression and a severe anxiety disorder , xD o.o",,,#,"49610998499389440",https://twitter.com/halli_/status/49610998499389440
Lianna,liannadickson,2011-03-07 04:58,0,0,"For those who don’t know, I’ve been diagnosed with bipolar disorder, depression and codependency. http://tumblr.com/xci1oziqqf",,,,"44517236030963712",https://twitter.com/liannadickson/status/44517236030963712
clalit,clalit,2011-03-06 13:01,0,0,". Experiencing weird symptoms?: Hello. I've been diagnosed with clinical depression and anxiety disorder, but I'... http://bit.ly/gKavcO",,,,"44276492275945472",https://twitter.com/clalit/status/44276492275945472
Joseph Burnett,ZimZimGiR86,2010-12-30 11:51,0,0,"@ YouNevaWannanoe I've been diagnosed with Manic Depressive Disorder (bipolar)... So I understand depression, if you are I'm sorry.",,@,,"20341176901046273",https://twitter.com/ZimZimGiR86/status/20341176901046273
Richie Balboa,djrichiebalboa,2010-05-04 19:40,0,0,"I've been diagnosed with post bank holiday depression disorder, help required. Too many parties not enough sleep",,,,"13362547039",https://twitter.com/djrichiebalboa/status/13362547039
clalit,clalit,2010-03-09 12:31,0,0,". Could this be normal? Or some kind of mental illness/personality disorder?: I've been diagnosed with depression ... http://bit.ly/9eFPLJ",,,,"10207664753",https://twitter.com/clalit/status/10207664753
Stephanie,stephaniehw,2010-02-12 05:08,0,0,"I've been diagnosed with depression; panic disorder; bi-polar; and generalized anxiety disorder over the last 11 years. Save mental health.",,,,"8979966237",https://twitter.com/stephaniehw/status/8979966237
Kody Simpson,Warmkid,2009-11-20 05:51,0,0,"I've officially been diagnosed with severe depression and bipolar disorder. As if I didn't know that already. # idontneedyou",,,#,"5871556100",https://twitter.com/Warmkid/status/5871556100